{
  "IcoMoonType": "selection",
  "icons": [
    {
      "icon": {
        "paths": [
          "M811.518 112.409h-223.088v-89.761c0-12.509-10.14-22.649-22.649-22.649h-107.556c-12.509 0-22.649 10.14-22.649 22.649v89.761h-223.091c-53.655 0-97.306 43.651-97.306 97.303v302.058c0 53.655 43.651 97.303 97.306 97.303h223.088v392.275c0 12.509 10.14 22.649 22.649 22.649h107.556c12.509 0 22.649-10.14 22.649-22.649v-392.272h223.088c53.655 0 97.306-43.651 97.306-97.303v-302.061c0-53.652-43.651-97.303-97.303-97.303zM863.523 511.774c0 28.677-23.328 52.005-52.008 52.005h-599.030c-28.677 0-52.008-23.328-52.008-52.005v-302.061c0-28.677 23.328-52.005 52.008-52.005h599.033c28.677 0 52.008 23.328 52.008 52.005v302.061zM480.871 45.298h62.258v67.112h-62.258v-67.112zM543.129 978.702h-62.258v-369.626h62.258v369.626z",
          "M218.438 181.941c-4.239-4.206-10.063-6.633-16.016-6.633s-11.81 2.427-16.016 6.633c-4.206 4.206-6.633 10.063-6.633 16.016s2.427 11.777 6.633 16.016c4.206 4.206 10.063 6.633 16.016 6.633s11.777-2.427 16.016-6.633c4.206-4.239 6.633-10.063 6.633-16.016s-2.427-11.81-6.633-16.016z",
          "M821.577 175.309c-5.953 0-11.777 2.427-16.016 6.633-4.206 4.206-6.633 10.063-6.633 16.016s2.427 11.81 6.633 16.016c4.239 4.206 10.063 6.633 16.016 6.633s11.81-2.427 16.016-6.633c4.239-4.239 6.633-10.063 6.633-16.016s-2.394-11.81-6.633-16.016c-4.206-4.206-10.063-6.633-16.016-6.633z",
          "M288.614 310.364h41.367c12.509 0 22.649-10.14 22.649-22.649s-10.14-22.649-22.649-22.649h-41.367c-35.3 0-64.015 28.716-64.015 64.015s28.716 64.015 64.015 64.015c10.321 0 18.718 8.396 18.718 18.718s-8.396 18.718-18.718 18.718h-41.367c-12.509 0-22.649 10.14-22.649 22.649s10.14 22.649 22.649 22.649h41.367c35.3 0 64.015-28.716 64.015-64.015s-28.716-64.015-64.015-64.015c-10.321 0-18.718-8.396-18.718-18.718s8.396-18.718 18.718-18.718z",
          "M442.507 265.066h-9.936c-32.559 0-59.049 26.489-59.049 59.049v92.673c0 32.559 26.489 59.049 59.049 59.049h9.936c32.559 0 59.049-26.489 59.049-59.049v-92.673c0-32.559-26.489-59.049-59.049-59.049zM456.258 416.784c0 7.581-6.167 13.751-13.751 13.751h-9.936c-7.581 0-13.751-6.167-13.751-13.751v-92.673c0-7.581 6.167-13.751 13.751-13.751h9.936c7.581 0 13.751 6.167 13.751 13.751v92.673z",
          "M721.78 265.066h-27.758c-12.509 0-22.649 10.14-22.649 22.649v165.469c0 12.509 10.14 22.649 22.649 22.649h27.758c42.803 0 77.624-34.821 77.624-77.624v-55.519c-0-42.8-34.821-77.624-77.624-77.624zM754.107 398.209c0 17.825-14.502 32.326-32.326 32.326h-5.109v-120.172h5.109c17.825 0 32.326 14.502 32.326 32.326v55.519z",
          "M627.829 430.535h-45.003c-8.315 0-15.084-6.766-15.084-15.084v-127.736c0-12.509-10.14-22.649-22.649-22.649s-22.649 10.14-22.649 22.649v127.736c0 33.294 27.088 60.382 60.382 60.382h45.003c12.509 0 22.649-10.14 22.649-22.649s-10.14-22.649-22.649-22.649z"
        ],
        "attrs": [
          {},
          {},
          {},
          {},
          {},
          {},
          {}
        ],
        "isMulticolor": false,
        "isMulticolor2": false,
        "grid": 0,
        "tags": [
          "sold"
        ]
      },
      "attrs": [
        {},
        {},
        {},
        {},
        {},
        {},
        {}
      ],
      "properties": {
        "order": 65,
        "id": 55,
        "name": "sold",
        "prevSize": 32,
        "code": 59701
      },
      "setIdx": 0,
      "setId": 1,
      "iconIdx": 0
    },
    {
      "icon": {
        "paths": [
          "M1021.711 609.151l-170.711-341.424c-4.353-8.62-13.956-13.402-23.26-11.395l-639.999 128.034c-0.512 0.086-0.982 0.214-1.45 0.342-4.439 1.152-8.152 3.671-10.925 6.956-0.726 0.854-1.366 1.75-1.921 2.689-0.342 0.554-0.598 1.11-0.896 1.622l-170.627 341.21c-0.426 0.81-0.384 1.706-0.682 2.561-0.47 1.366-0.938 2.689-1.11 4.183-0.214 1.494-0.128 2.945 0 4.439 0.086 0.854-0.17 1.706 0 2.561 0.086 0.47 0.384 0.854 0.512 1.322 0.298 1.11 0.768 2.091 1.238 3.159 0.64 1.408 1.322 2.731 2.219 3.927 0.598 0.854 1.28 1.578 2.049 2.305 1.194 1.194 2.475 2.177 3.927 3.073 0.554 0.342 0.896 0.854 1.45 1.152 0.298 0.17 0.682 0.086 0.982 0.214 2.647 1.194 5.463 2.007 8.536 2.007 1.366 0 2.775-0.128 4.225-0.426l294.392-58.854 23.728 47.501c4.311 8.578 13.742 13.316 23.26 11.395l640.169-128.034c6.53-1.28 12.077-5.591 15.022-11.565 2.945-5.98 2.859-12.977-0.128-18.953zM59.624 717.253l132.131-264.22 108.103 216.207-240.233 48.013zM622.716 554.266l-213.39 42.677c-1.408 0.298-2.817 0.426-4.183 0.426-9.945 0-18.863-7-20.912-17.157-2.305-11.565 5.207-22.79 16.73-25.095l213.39-42.677c11.097-2.433 22.748 5.121 25.095 16.73 2.347 11.567-5.165 22.79-16.73 25.095zM793.427 426.232l-426.779 85.357c-1.408 0.298-2.817 0.426-4.183 0.426-9.945 0-18.863-7-20.912-17.157-2.305-11.565 5.207-22.79 16.73-25.095l426.779-85.357c11.053-2.391 22.748 5.163 25.095 16.73s-5.165 22.79-16.73 25.095z"
        ],
        "attrs": [],
        "isMulticolor": false,
        "isMulticolor2": false,
        "grid": 0,
        "tags": [
          "booked"
        ],
        "colorPermutations": {}
      },
      "attrs": [],
      "properties": {
        "order": 63,
        "id": 54,
        "name": "booked",
        "prevSize": 32,
        "code": 59700
      },
      "setIdx": 0,
      "setId": 1,
      "iconIdx": 1
    },
    {
      "icon": {
        "paths": [
          "M624.606 501.76c-6.192 10.251-9.977 22.572-10.29 35.752l-0.002 0.088v353.28l-102.298-51.2v-302.080c-0.24-11.56-4.043-22.186-10.349-30.878l0.109 0.158-337.664-404.48h803.226zM1120.785 30.72c-7.465-18.165-25.021-30.722-45.51-30.722-0.164 0-0.329 0.001-0.493 0.002l0.025-0h-1023.232c-0.139-0.001-0.303-0.002-0.468-0.002-20.489 0-38.044 12.557-45.391 30.396l-0.119 0.326c-3.343 6.303-5.306 13.78-5.306 21.715 0 11.202 3.912 21.491 10.445 29.574l-0.070-0.089 399.053 471.040v317.44c-0.002 0.143-0.002 0.312-0.002 0.482 0 20.498 12.528 38.071 30.345 45.478l0.326 0.12 204.646 102.4c5.12 5.12 10.24 5.12 20.429 5.12 1.73 0.277 3.723 0.436 5.754 0.436 7.337 0 14.19-2.067 20.011-5.65l-0.165 0.095c15.432-9.62 25.55-26.501 25.55-45.744 0-0.118-0-0.236-0.001-0.354l0 0.018v-419.84l399.053-471.040c6.491-7.994 10.422-18.294 10.422-29.514 0-7.925-1.962-15.392-5.426-21.942l0.123 0.256z"
        ],
        "attrs": [],
        "width": 1126,
        "isMulticolor": false,
        "isMulticolor2": false,
        "grid": 0,
        "tags": [
          "filter"
        ],
        "colorPermutations": {}
      },
      "attrs": [],
      "properties": {
        "order": 62,
        "id": 53,
        "name": "filter",
        "prevSize": 32,
        "code": 59698
      },
      "setIdx": 0,
      "setId": 1,
      "iconIdx": 2
    },
    {
      "icon": {
        "paths": [
          "M701.44 394.24l-117.76 117.76 117.76 117.76c9.471 9.032 15.36 21.748 15.36 35.84s-5.889 26.808-15.34 35.821l-0.020 0.019c-9.032 9.471-21.748 15.36-35.84 15.36s-26.808-5.889-35.821-15.34l-0.019-0.020-117.76-117.76-117.76 117.76c-9.032 9.471-21.748 15.36-35.84 15.36s-26.808-5.889-35.821-15.34l-0.019-0.020c-9.471-9.032-15.36-21.748-15.36-35.84s5.889-26.808 15.34-35.821l0.020-0.019 117.76-117.76-117.76-117.76c-9.151-9.169-14.809-21.825-14.809-35.804 0-27.993 22.693-50.685 50.685-50.685 13.978 0 26.635 5.659 35.805 14.81l-0.001-0.001 117.76 117.76 117.76-117.76c9.176-9.194 21.862-14.882 35.876-14.882 27.993 0 50.685 22.693 50.685 50.685 0 14.014-5.688 26.7-14.881 35.875l-0.001 0.001zM921.6 870.4c0.056 0.872 0.088 1.89 0.088 2.916 0 26.715-21.657 48.372-48.372 48.372-1.026 0-2.044-0.032-3.054-0.095l0.138 0.007h-716.8c-0.872 0.056-1.89 0.088-2.916 0.088-26.715 0-48.372-21.657-48.372-48.372 0-1.026 0.032-2.044 0.095-3.054l-0.007 0.138v-716.8c-0.056-0.872-0.088-1.89-0.088-2.916 0-26.715 21.657-48.372 48.372-48.372 1.026 0 2.044 0.032 3.054 0.095l-0.138-0.007h716.8c0.872-0.056 1.89-0.088 2.916-0.088 26.715 0 48.372 21.657 48.372 48.372 0 1.026-0.032 2.044-0.095 3.054l0.007-0.138zM870.4 0h-716.8c-0.823-0.016-1.794-0.025-2.767-0.025-83.317 0-150.858 67.542-150.858 150.858 0 0.973 0.009 1.944 0.028 2.912l-0.002-0.145v716.8c-0.016 0.823-0.025 1.794-0.025 2.767 0 83.317 67.542 150.858 150.858 150.858 0.973 0 1.944-0.009 2.912-0.028l-0.145 0.002h716.8c0.823 0.016 1.794 0.025 2.767 0.025 83.317 0 150.858-67.542 150.858-150.858 0-0.973-0.009-1.944-0.028-2.912l0.002 0.145v-716.8c0.016-0.823 0.025-1.794 0.025-2.767 0-83.317-67.542-150.858-150.858-150.858-0.973 0-1.944 0.009-2.912 0.028l0.145-0.002z"
        ],
        "attrs": [],
        "isMulticolor": false,
        "isMulticolor2": false,
        "grid": 0,
        "tags": [
          "x-square"
        ],
        "colorPermutations": {}
      },
      "attrs": [],
      "properties": {
        "order": 61,
        "id": 52,
        "name": "x-square",
        "prevSize": 32,
        "code": 59699
      },
      "setIdx": 0,
      "setId": 1,
      "iconIdx": 3
    },
    {
      "icon": {
        "paths": [
          "M358.4 921.6h-256v-256h256zM409.6 563.2h-358.4c-0.872-0.056-1.89-0.088-2.916-0.088-26.715 0-48.372 21.657-48.372 48.372 0 1.026 0.032 2.044 0.095 3.054l-0.007-0.138v358.4c-0.056 0.872-0.088 1.89-0.088 2.916 0 26.715 21.657 48.372 48.372 48.372 1.026 0 2.044-0.032 3.054-0.095l-0.138 0.007h358.4c0.872 0.056 1.89 0.088 2.916 0.088 26.715 0 48.372-21.657 48.372-48.372 0-1.026-0.032-2.044-0.095-3.054l0.007 0.138v-358.4c0.056-0.872 0.088-1.89 0.088-2.916 0-26.715-21.657-48.372-48.372-48.372-1.026 0-2.044 0.032-3.054 0.095l0.138-0.007zM921.6 921.6h-256v-256h256zM972.8 563.2h-358.4c-0.872-0.056-1.89-0.088-2.916-0.088-26.715 0-48.372 21.657-48.372 48.372 0 1.026 0.032 2.044 0.095 3.054l-0.007-0.138v358.4c-0.056 0.872-0.088 1.89-0.088 2.916 0 26.715 21.657 48.372 48.372 48.372 1.026 0 2.044-0.032 3.054-0.095l-0.138 0.007h358.4c0.872 0.056 1.89 0.088 2.916 0.088 26.715 0 48.372-21.657 48.372-48.372 0-1.026-0.032-2.044-0.095-3.054l0.007 0.138v-358.4c0.056-0.872 0.088-1.89 0.088-2.916 0-26.715-21.657-48.372-48.372-48.372-1.026 0-2.044 0.032-3.054 0.095l0.138-0.007zM921.6 358.4h-256v-256h256zM972.8 0h-358.4c-0.872-0.056-1.89-0.088-2.916-0.088-26.715 0-48.372 21.657-48.372 48.372 0 1.026 0.032 2.044 0.095 3.054l-0.007-0.138v358.4c-0.056 0.872-0.088 1.89-0.088 2.916 0 26.715 21.657 48.372 48.372 48.372 1.026 0 2.044-0.032 3.054-0.095l-0.138 0.007h358.4c0.872 0.056 1.89 0.088 2.916 0.088 26.715 0 48.372-21.657 48.372-48.372 0-1.026-0.032-2.044-0.095-3.054l0.007 0.138v-358.4c0.056-0.872 0.088-1.89 0.088-2.916 0-26.715-21.657-48.372-48.372-48.372-1.026 0-2.044 0.032-3.054 0.095l0.138-0.007zM358.4 358.4h-256v-256h256zM409.6 0h-358.4c-0.872-0.056-1.89-0.088-2.916-0.088-26.715 0-48.372 21.657-48.372 48.372 0 1.026 0.032 2.044 0.095 3.054l-0.007-0.138v358.4c-0.056 0.872-0.088 1.89-0.088 2.916 0 26.715 21.657 48.372 48.372 48.372 1.026 0 2.044-0.032 3.054-0.095l-0.138 0.007h358.4c0.872 0.056 1.89 0.088 2.916 0.088 26.715 0 48.372-21.657 48.372-48.372 0-1.026-0.032-2.044-0.095-3.054l0.007 0.138v-358.4c0.056-0.872 0.088-1.89 0.088-2.916 0-26.715-21.657-48.372-48.372-48.372-1.026 0-2.044 0.032-3.054 0.095l0.138-0.007z"
        ],
        "attrs": [],
        "isMulticolor": false,
        "isMulticolor2": false,
        "grid": 0,
        "tags": [
          "grid"
        ],
        "colorPermutations": {}
      },
      "attrs": [],
      "properties": {
        "order": 60,
        "id": 51,
        "name": "grid",
        "prevSize": 32,
        "code": 59696
      },
      "setIdx": 0,
      "setId": 1,
      "iconIdx": 4
    },
    {
      "icon": {
        "paths": [
          "M21.943 899.658c-7.314 7.314-14.629 14.702-14.629 22.016-4.735 6.891-7.563 15.414-7.563 24.597 0 1.641 0.090 3.262 0.266 4.856l-0.018-0.197c-0.016 0.537-0.025 1.17-0.025 1.804 0 19.551 8.455 37.127 21.909 49.27l0.058 0.052c12.203 13.513 29.786 21.969 49.344 21.969 0.652 0 1.303-0.009 1.951-0.028l-0.095 0.002c0.553 0.017 1.203 0.026 1.855 0.026 19.558 0 37.141-8.456 49.293-21.911l0.052-0.058c13.53-12.903 21.943-31.069 21.943-51.2s-8.413-38.296-21.915-51.173l-0.028-0.027c-12.903-13.53-31.069-21.943-51.2-21.943s-38.296 8.413-51.173 21.915l-0.027 0.028zM138.971 482.891c0-7.314-7.314-7.314-7.314-14.629 0.001-0.045 0.002-0.099 0.002-0.152 0-3.956-3.207-7.164-7.164-7.164-0.054 0-0.107 0.001-0.16 0.002l0.008-0c-12.269-13.596-29.951-22.105-49.622-22.105-11.27 0-21.887 2.793-31.198 7.724l0.362-0.175c-7.314 7.241-14.629 7.241-21.943 14.555l-7.314 7.314c0 7.314-7.314 7.314-7.314 14.629s0 7.314-7.314 14.629v14.629c-0.017 0.553-0.026 1.203-0.026 1.855 0 19.558 8.456 37.141 21.911 49.293l0.058 0.052c12.203 13.513 29.786 21.969 49.344 21.969 0.652 0 1.303-0.009 1.951-0.028l-0.095 0.002c0.553 0.017 1.203 0.026 1.855 0.026 19.558 0 37.141-8.456 49.293-21.911l0.052-0.058c13.513-12.203 21.969-29.786 21.969-49.344 0-0.652-0.009-1.303-0.028-1.951l0.002 0.095v-14.629c0-7.314-7.314-7.314-7.314-14.629zM102.4 7.61c-8.936-4.739-19.536-7.521-30.786-7.521-19.694 0-37.397 8.527-49.618 22.090l-0.053 0.060c-7.314 7.314-14.629 14.629-14.629 21.943-4.732 6.909-7.557 15.448-7.557 24.648 0 1.624 0.088 3.227 0.259 4.805l-0.017-0.195c-0.154 1.383-0.242 2.986-0.242 4.609 0 9.199 2.825 17.739 7.654 24.798l-0.097-0.151c7.314 7.314 7.314 14.629 14.629 21.943l7.314 7.314c7.314 0 7.314 7.241 14.629 7.241s7.314 0 14.629 7.387h14.629c0.52 0.015 1.133 0.023 1.748 0.023 19.591 0 37.207-8.452 49.402-21.909l0.050-0.056c13.513-12.203 21.969-29.786 21.969-49.344 0-0.652-0.009-1.303-0.028-1.951l0.002 0.095c0.017-0.553 0.026-1.203 0.026-1.855 0-19.558-8.456-37.141-21.911-49.293l-0.058-0.052c-7.314-7.314-14.629-14.629-21.943-14.629zM1389.709 877.788h-950.854c-40.375-0-73.106 32.731-73.106 73.106s32.731 73.106 73.106 73.106v0h950.854c40.375 0 73.106-32.731 73.106-73.106s-32.731-73.106-73.106-73.106v0zM1389.709 439.079h-950.854c-1.262-0.082-2.736-0.129-4.221-0.129-38.133 0-69.047 30.913-69.047 69.047 0 1.461 0.045 2.911 0.135 4.349l-0.010-0.197c-0.080 1.245-0.126 2.7-0.126 4.165 0 38.164 30.938 69.103 69.103 69.103 1.465 0 2.92-0.046 4.363-0.135l-0.198 0.010h950.854c1.245 0.080 2.7 0.126 4.165 0.126 38.164 0 69.103-30.938 69.103-69.103 0-1.465-0.046-2.92-0.135-4.363l0.010 0.198c0.080-1.241 0.125-2.691 0.125-4.152 0-38.133-30.913-69.047-69.047-69.047-1.485 0-2.959 0.047-4.421 0.139l0.2-0.010zM365.713 73.439c-0.080-1.245-0.126-2.7-0.126-4.165 0-38.164 30.938-69.103 69.103-69.103 1.465 0 2.92 0.046 4.363 0.135l-0.198-0.010h950.854c1.245-0.080 2.7-0.126 4.165-0.126 38.164 0 69.103 30.938 69.103 69.103 0 1.465-0.046 2.92-0.135 4.363l0.010-0.198c0.080 1.245 0.126 2.7 0.126 4.165 0 38.164-30.938 69.103-69.103 69.103-1.465 0-2.92-0.046-4.363-0.135l0.198 0.010h-950.854c-1.245 0.080-2.7 0.126-4.165 0.126-38.164 0-69.103-30.938-69.103-69.103 0-1.465 0.046-2.92 0.135-4.363l-0.010 0.198z"
        ],
        "attrs": [],
        "width": 1463,
        "isMulticolor": false,
        "isMulticolor2": false,
        "grid": 0,
        "tags": [
          "list"
        ],
        "colorPermutations": {}
      },
      "attrs": [],
      "properties": {
        "order": 59,
        "id": 50,
        "name": "list",
        "prevSize": 32,
        "code": 59697
      },
      "setIdx": 0,
      "setId": 1,
      "iconIdx": 5
    },
    {
      "icon": {
        "paths": [
          "M1017.489 251.369c-8.682-8.682-22.796-8.682-31.478 0l-473.987 474.033-474.033-473.987c-8.682-8.682-22.796-8.682-31.478 0s-8.682 22.796 0 31.478l489.75 489.75c4.364 4.318 10.061 6.501 15.761 6.501s11.397-2.181 15.717-6.545l489.75-489.75c8.68-8.684 8.68-22.798-0.002-31.48z"
        ],
        "attrs": [],
        "isMulticolor": false,
        "isMulticolor2": false,
        "grid": 0,
        "tags": [
          "arrow-down"
        ],
        "colorPermutations": {}
      },
      "attrs": [],
      "properties": {
        "order": 55,
        "id": 48,
        "name": "arrow-down",
        "prevSize": 32,
        "code": 59650
      },
      "setIdx": 0,
      "setId": 1,
      "iconIdx": 6
    },
    {
      "icon": {
        "paths": [
          "M323.584 256c8.93 8.516 14.482 20.506 14.482 33.792s-5.553 25.276-14.464 33.774l-0.019 0.018c-8.516 8.93-20.506 14.482-33.792 14.482s-25.276-5.553-33.774-14.464l-0.018-0.019c-4.876-4.779-9.704-9.655-9.704-14.482-3.094-4.562-4.94-10.189-4.94-16.247 0-1.079 0.059-2.144 0.173-3.192l-0.011 0.13c-0.012-0.386-0.019-0.84-0.019-1.296 0-12.887 5.583-24.469 14.462-32.461l0.040-0.035c8.102-9.011 19.799-14.652 32.813-14.652 7.413 0 14.399 1.831 20.53 5.064l-0.24-0.116c4.827 0 9.704 4.876 14.482 9.704zM912.872 565.102l-347.77 347.77c-8.506 8.951-20.499 14.519-33.792 14.519s-25.286-5.568-33.773-14.499l-0.019-0.020-400.92-400.872v-415.403h415.403l400.872 400.92c8.951 8.506 14.519 20.499 14.519 33.792s-5.568 25.286-14.499 33.773l-0.020 0.019zM980.504 429.885l-415.403-415.451c-8.045-8.891-19.626-14.452-32.507-14.452-0.452 0-0.902 0.007-1.351 0.020l0.066-0.002h-483.035c-0.822-0.053-1.782-0.083-2.749-0.083-25.189 0-45.608 20.42-45.608 45.608 0 0.967 0.030 1.927 0.089 2.879l-0.006-0.13v483.035c-0.011 0.362-0.017 0.787-0.017 1.214 0 12.902 5.56 24.506 14.414 32.546l0.036 0.032 415.451 415.403c25.366 26.81 61.196 43.497 100.922 43.497 0.177 0 0.353-0 0.53-0.001l-0.027 0c1.099 0.033 2.391 0.052 3.688 0.052 38.745 0 73.575-16.762 97.634-43.431l0.103-0.116 347.77-347.77c26.79-25.567 43.447-61.551 43.447-101.425s-16.657-75.858-43.392-101.373l-0.055-0.052z"
        ],
        "attrs": [],
        "isMulticolor": false,
        "isMulticolor2": false,
        "grid": 0,
        "tags": [
          "label-o"
        ],
        "colorPermutations": {}
      },
      "attrs": [],
      "properties": {
        "order": 51,
        "id": 47,
        "name": "label-o",
        "prevSize": 32,
        "code": 59694
      },
      "setIdx": 0,
      "setId": 1,
      "iconIdx": 7
    },
    {
      "icon": {
        "paths": [
          "M739.8 195.8l-167.8-167.8c-18-18-42.4-28.2-67.8-28.2h-408.2c-53 0.2-96 43.2-96 96.2v832c0 53 43 96 96 96h576c53 0 96-43 96-96v-664.2c0-25.4-10.2-50-28.2-68zM664.2 256h-152.2v-152.2l152.2 152.2zM96 928v-832h320v208c0 26.6 21.4 48 48 48h208v576h-576zM596.4 640.6c-24.4-24-94-17.4-128.8-13-34.4-21-57.4-50-73.6-92.6 7.8-32.2 20.2-81.2 10.8-112-8.4-52.4-75.6-47.2-85.2-11.8-8.8 32.2-0.8 77 14 134.2-20 47.8-49.8 112-70.8 148.8-40 20.6-94 52.4-102 92.4-6.6 31.6 52 110.4 152.2-62.4 44.8-14.8 93.6-33 136.8-40.2 37.8 20.4 82 34 111.6 34 51 0 56-56.4 35-77.4zM200.2 796.2c10.2-27.4 49-59 60.8-70-38 60.6-60.8 71.4-60.8 70zM363.4 415c14.8 0 13.4 64.2 3.6 81.6-8.8-27.8-8.6-81.6-3.6-81.6zM314.6 688.2c19.4-33.8 36-74 49.4-109.4 16.6 30.2 37.8 54.4 60.2 71-41.6 8.6-77.8 26.2-109.6 38.4zM577.8 678.2s-10 12-74.6-15.6c70.2-5.2 81.8 10.8 74.6 15.6z"
        ],
        "attrs": [],
        "width": 768,
        "isMulticolor": false,
        "isMulticolor2": false,
        "grid": 0,
        "tags": [
          "file-pdf"
        ],
        "colorPermutations": {}
      },
      "attrs": [],
      "properties": {
        "order": 52,
        "id": 46,
        "name": "file-pdf",
        "prevSize": 32,
        "code": 59693
      },
      "setIdx": 0,
      "setId": 1,
      "iconIdx": 8
    },
    {
      "icon": {
        "paths": [
          "M853.333 0h-682.667c-0.726-0.047-1.575-0.073-2.429-0.073-22.263 0-40.31 18.048-40.31 40.31 0 0.855 0.027 1.703 0.079 2.545l-0.006-0.115v938.667c-0.047 0.726-0.073 1.575-0.073 2.429 0 22.263 18.048 40.31 40.31 40.31 0.855 0 1.703-0.027 2.545-0.079l-0.115 0.006h682.667c0.726 0.047 1.575 0.073 2.429 0.073 22.263 0 40.31-18.048 40.31-40.31 0-0.855-0.027-1.703-0.079-2.545l0.006 0.115v-938.667c0.047-0.726 0.073-1.575 0.073-2.429 0-22.263-18.048-40.31-40.31-40.31-0.855 0-1.703 0.027-2.545 0.079l0.115-0.006zM554.667 938.667v-85.333h-85.333v85.333h-256v-853.333h597.333v853.333zM298.667 170.667v85.333h85.333v-85.333zM469.333 170.667v85.333h85.333v-85.333zM640 170.667v85.333h85.333v-85.333zM298.667 341.333v85.333h85.333v-85.333zM469.333 341.333v85.333h85.333v-85.333zM640 341.333v85.333h85.333v-85.333zM298.667 512v85.333h85.333v-85.333zM469.333 512v85.333h85.333v-85.333zM640 512v85.333h85.333v-85.333zM298.667 682.667v85.333h85.333v-85.333zM469.333 682.667v85.333h85.333v-85.333zM640 682.667v85.333h85.333v-85.333z"
        ],
        "attrs": [],
        "isMulticolor": false,
        "isMulticolor2": false,
        "grid": 0,
        "tags": [
          "apartments"
        ],
        "colorPermutations": {
          "12020301": [
            {}
          ]
        }
      },
      "attrs": [],
      "properties": {
        "order": 5,
        "id": 45,
        "name": "apartments",
        "prevSize": 32,
        "code": 59648
      },
      "setIdx": 0,
      "setId": 1,
      "iconIdx": 9
    },
    {
      "icon": {
        "paths": [
          "M884.364 325.818h-418.909c-0.749-0.015-1.631-0.023-2.516-0.023-75.742 0-137.144 61.401-137.144 137.144 0 0.885 0.008 1.767 0.025 2.648l-0.002-0.132v418.909c-0.015 0.749-0.023 1.631-0.023 2.516 0 75.742 61.401 137.144 137.144 137.144 0.885 0 1.767-0.008 2.648-0.025l-0.132 0.002h418.909c0.749 0.015 1.631 0.023 2.516 0.023 75.742 0 137.144-61.401 137.144-137.144 0-0.885-0.008-1.767-0.025-2.648l0.002 0.132v-418.909c0.015-0.749 0.023-1.631 0.023-2.516 0-75.742-61.401-137.144-137.144-137.144-0.885 0-1.767 0.008-2.648 0.025l0.132-0.002zM930.909 884.364c0.051 0.792 0.080 1.718 0.080 2.65 0 24.287-19.688 43.975-43.975 43.975-0.932 0-1.858-0.029-2.776-0.086l0.126 0.006h-418.909c-0.792 0.051-1.718 0.080-2.65 0.080-24.287 0-43.975-19.688-43.975-43.975 0-0.932 0.029-1.858 0.086-2.776l-0.006 0.126v-418.909c-0.051-0.792-0.080-1.718-0.080-2.65 0-24.287 19.688-43.975 43.975-43.975 0.932 0 1.858 0.029 2.776 0.086l-0.126-0.006h418.909c0.792-0.051 1.718-0.080 2.65-0.080 24.287 0 43.975 19.688 43.975 43.975 0 0.932-0.029 1.858-0.086 2.776l0.006-0.126zM232.727 651.637c0.051 0.792 0.080 1.718 0.080 2.65 0 24.287-19.688 43.975-43.975 43.975-0.932 0-1.858-0.029-2.776-0.086l0.126 0.006h-46.546c-0.749 0.015-1.631 0.023-2.516 0.023-75.742 0-137.144-61.401-137.144-137.144 0-0.885 0.008-1.767 0.025-2.648l-0.002 0.132v-418.909c-0.015-0.749-0.023-1.631-0.023-2.516 0-75.742 61.401-137.144 137.144-137.144 0.885 0 1.767 0.008 2.648 0.025l-0.132-0.002h418.909c0.749-0.015 1.631-0.023 2.516-0.023 75.742 0 137.144 61.401 137.144 137.144 0 0.885-0.008 1.767-0.025 2.648l0.002-0.132v46.546c-0 25.706-20.839 46.546-46.546 46.546s-46.546-20.839-46.546-46.546v0-46.546c0.051-0.792 0.080-1.718 0.080-2.65 0-24.287-19.688-43.975-43.975-43.975-0.932 0-1.858 0.029-2.776 0.086l0.126-0.006h-418.909c-0.792-0.051-1.718-0.080-2.65-0.080-24.287 0-43.975 19.688-43.975 43.975 0 0.932 0.029 1.858 0.086 2.776l-0.006-0.126v418.909c-0.051 0.792-0.080 1.718-0.080 2.65 0 24.287 19.688 43.975 43.975 43.975 0.932 0 1.858-0.029 2.776-0.086l-0.126 0.006h46.546c0.792-0.051 1.718-0.080 2.65-0.080 24.287 0 43.975 19.688 43.975 43.975 0 0.933-0.029 1.858-0.086 2.776l0.006-0.126z"
        ],
        "attrs": [],
        "isMulticolor": false,
        "isMulticolor2": false,
        "grid": 0,
        "tags": [
          "areas"
        ],
        "colorPermutations": {
          "12020301": [
            {}
          ]
        }
      },
      "attrs": [],
      "properties": {
        "order": 6,
        "id": 44,
        "name": "areas",
        "prevSize": 32,
        "code": 59649
      },
      "setIdx": 0,
      "setId": 1,
      "iconIdx": 10
    },
    {
      "icon": {
        "paths": [
          "M992 256v32c0 8.837-7.163 16-16 16v0h-48v24c0 13.254-10.746 24-24 24h-784c-13.254 0-24-10.746-24-24v-24h-48c-8.837 0-16-7.163-16-16v0-32c0-6.629 4.032-12.317 9.777-14.745l0.105-0.039 464-176c1.808-0.769 3.911-1.217 6.118-1.217s4.31 0.447 6.223 1.256l-0.105-0.039 464 176c5.85 2.467 9.882 8.155 9.882 14.784l0 0zM944 864h-864c-26.51 0-48 21.49-48 48v32c0 8.837 7.163 16 16 16v0h928c8.837 0 16-7.163 16-16v0-32c0-26.51-21.49-48-48-48zM192 384v384h-72c-13.254 0-24 10.746-24 24v40h832v-40c0-13.254-10.746-24-24-24h-72v-384h-128v384h-128v-384h-128v384h-128v-384h-128z"
        ],
        "attrs": [],
        "isMulticolor": false,
        "isMulticolor2": false,
        "grid": 0,
        "tags": [
          "bank"
        ],
        "colorPermutations": {
          "12020301": [
            {}
          ]
        }
      },
      "attrs": [],
      "properties": {
        "order": 8,
        "id": 42,
        "name": "bank",
        "prevSize": 32,
        "code": 59651
      },
      "setIdx": 0,
      "setId": 1,
      "iconIdx": 11
    },
    {
      "icon": {
        "paths": [
          "M96 264h832c17.674 0 32-14.326 32-32v-80c0-17.674-14.326-32-32-32h-832c-17.674 0-32 14.326-32 32v80c0 17.674 14.326 32 32 32zM96 584h832c17.674 0 32-14.326 32-32v-80c0-17.674-14.326-32-32-32h-832c-17.674 0-32 14.326-32 32v80c0 17.674 14.326 32 32 32zM96 904h832c17.674 0 32-14.326 32-32v-80c0-17.674-14.326-32-32-32h-832c-17.674 0-32 14.326-32 32v80c0 17.674 14.326 32 32 32z"
        ],
        "attrs": [],
        "isMulticolor": false,
        "isMulticolor2": false,
        "grid": 0,
        "tags": [
          "bars"
        ],
        "colorPermutations": {
          "12020301": [
            {}
          ]
        }
      },
      "attrs": [],
      "properties": {
        "order": 9,
        "id": 41,
        "name": "bars",
        "prevSize": 32,
        "code": 59652
      },
      "setIdx": 0,
      "setId": 1,
      "iconIdx": 12
    },
    {
      "icon": {
        "paths": [
          "M623.702 889.019c-6.419-3.088-13.956-4.892-21.915-4.892-18.044 0-33.922 9.273-43.128 23.314l-0.121 0.196c-8.089 14.962-23.661 24.955-41.568 24.955-8.69 0-16.829-2.353-23.817-6.457l0.221 0.12c-9.309-4.655-13.964-13.964-18.618-18.618-8.344-14.81-23.969-24.649-41.891-24.649-26.466 0-47.921 21.455-47.921 47.921 0 8.544 2.236 16.566 6.155 23.512l-0.124-0.24c12.314 21.519 29.68 38.886 50.54 50.851l0.659 0.349c19.259 11.709 42.544 18.639 67.448 18.639 0.833 0 1.665-0.008 2.495-0.023l-0.124 0.002c51.411-0.103 96.319-27.85 120.66-69.162l0.357-0.656c13.964-23.273 13.964-55.854-9.309-65.163z",
          "M977.45 698.179c-51.35-0.155-92.935-41.741-93.090-93.076l-0-0.015v-232.726c0-205.65-166.712-372.362-372.362-372.362s-372.362 166.712-372.362 372.362v0 232.726c-0.155 51.35-41.741 92.935-93.076 93.090l-0.015 0c-25.706 0-46.545 20.839-46.545 46.545s20.839 46.545 46.545 46.545v0h930.905c25.706 0 46.545-20.839 46.545-46.545s-20.839-46.545-46.545-46.545v0z"
        ],
        "attrs": [],
        "isMulticolor": false,
        "isMulticolor2": false,
        "grid": 0,
        "tags": [
          "bell"
        ],
        "colorPermutations": {
          "12020301": [
            {},
            {}
          ]
        }
      },
      "attrs": [],
      "properties": {
        "order": 10,
        "id": 40,
        "name": "bell",
        "prevSize": 32,
        "code": 59653
      },
      "setIdx": 0,
      "setId": 1,
      "iconIdx": 13
    },
    {
      "icon": {
        "paths": [
          "M814.545 698.182c-14.153-27.056-22.691-59.011-23.27-92.906l-0.002-0.185v-232.727c0-154.238-125.035-279.273-279.273-279.273s-279.273 125.035-279.273 279.273v0 232.727c-0.581 34.080-9.12 66.035-23.829 94.264l0.556-1.173zM1024 744.727c0.051 0.792 0.080 1.718 0.080 2.651 0 24.287-19.688 43.975-43.975 43.975-0.933 0-1.858-0.029-2.776-0.086l0.126 0.006h-930.909c-25.706 0-46.545-20.839-46.545-46.545s20.839-46.545 46.545-46.545v0c51.35-0.155 92.936-41.741 93.091-93.076l0-0.015v-232.727c0-205.651 166.713-372.364 372.364-372.364s372.364 166.713 372.364 372.364v0 232.727c0.155 51.35 41.741 92.936 93.076 93.091l0.015 0c0.792-0.051 1.718-0.080 2.651-0.080 24.287 0 43.975 19.688 43.975 43.975 0 0.933-0.029 1.858-0.086 2.776l0.006-0.126zM633.018 954.182c-24.699 41.969-69.607 69.715-121.003 69.818l-0.015 0c-0.705 0.014-1.537 0.021-2.37 0.021-24.904 0-48.189-6.931-68.032-18.969l0.584 0.329c-21.52-12.314-38.886-29.68-50.851-50.541l-0.349-0.659c-3.795-6.707-6.031-14.729-6.031-23.273 0-26.466 21.455-47.921 47.921-47.921 17.922 0 33.547 9.839 41.767 24.409l0.124 0.24c4.655 4.655 9.309 13.964 18.618 18.618 6.766 3.984 14.906 6.337 23.596 6.337 17.906 0 33.479-9.993 41.444-24.706l0.123-0.249c9.327-14.237 25.205-23.51 43.248-23.51 7.959 0 15.496 1.804 22.225 5.026l-0.31-0.134c23.273 9.309 23.273 41.891 9.309 65.164z"
        ],
        "attrs": [],
        "isMulticolor": false,
        "isMulticolor2": false,
        "grid": 0,
        "tags": [
          "bell-o"
        ],
        "colorPermutations": {
          "12020301": [
            {}
          ]
        }
      },
      "attrs": [],
      "properties": {
        "order": 11,
        "id": 39,
        "name": "bell-o",
        "prevSize": 32,
        "code": 59654
      },
      "setIdx": 0,
      "setId": 1,
      "iconIdx": 14
    },
    {
      "icon": {
        "paths": [
          "M27.927 320.364l465.454 232.992c4.654 4.66 9.309 4.66 18.618 4.66s13.964 0 18.618-4.66l465.455-232.992c16.543-7.042 27.93-23.161 27.93-41.939s-11.387-34.896-27.633-41.826l-0.297-0.113-465.455-232.992c-6.244-2.215-13.445-3.495-20.945-3.495s-14.702 1.28-21.397 3.633l0.452-0.138-465.454 232.992c-14.058 8.765-23.274 24.144-23.274 41.675 0 0.093 0 0.185 0.001 0.278l-0-0.014c-0.001 0.133-0.002 0.291-0.002 0.449 0 18.658 11.41 34.65 27.633 41.381l0.297 0.109zM512 96.692l363.055 181.734-363.055 181.735-363.055-181.735zM1019.346 725.77c2.488 5.682 3.935 12.304 3.935 19.264 0 17.259-8.901 32.438-22.364 41.198l-0.19 0.116-465.454 232.992c-5.661 3.041-12.387 4.827-19.53 4.827-1.318 0-2.621-0.061-3.908-0.18l0.165 0.012c-9.309 0-13.964 0-18.618-4.66l-465.455-232.992c-15.019-6.357-25.365-20.971-25.365-38.001 0-8.402 2.518-16.217 6.842-22.729l-0.095 0.152c6.325-15.029 20.929-25.39 37.953-25.39 8.396 0 16.203 2.52 22.707 6.845l-0.151-0.094 446.836 223.672 446.836-223.672c13.964-13.979 41.891-4.66 55.855 18.639zM1019.346 492.778c2.488 5.682 3.935 12.304 3.935 19.264 0 17.259-8.901 32.438-22.364 41.198l-0.19 0.116-465.454 232.992c-5.661 3.041-12.387 4.827-19.53 4.827-1.318 0-2.621-0.061-3.908-0.18l0.165 0.012c-9.309 0-13.964 0-18.618-4.66l-465.455-232.992c-15.019-6.357-25.365-20.971-25.365-38.001 0-8.403 2.519-16.217 6.842-22.729l-0.095 0.152c6.325-15.029 20.929-25.39 37.953-25.39 8.396 0 16.203 2.52 22.707 6.845l-0.151-0.094 446.836 223.672 446.836-223.672c13.964-13.979 41.891-4.66 55.855 18.639z"
        ],
        "attrs": [],
        "isMulticolor": false,
        "isMulticolor2": false,
        "grid": 0,
        "tags": [
          "blocks"
        ],
        "colorPermutations": {
          "12020301": [
            {}
          ]
        }
      },
      "attrs": [],
      "properties": {
        "order": 12,
        "id": 38,
        "name": "blocks",
        "prevSize": 32,
        "code": 59655
      },
      "setIdx": 0,
      "setId": 1,
      "iconIdx": 15
    },
    {
      "icon": {
        "paths": [
          "M835.678 94.161h-94.161v-47.080c-0-26.002-21.079-47.081-47.081-47.081s-47.081 21.079-47.081 47.081v0 47.080h-282.483v-47.080c0.052-0.801 0.081-1.738 0.081-2.681 0-24.566-19.915-44.48-44.48-44.48-0.943 0-1.879 0.029-2.808 0.087l0.127-0.006c-0.801-0.052-1.738-0.081-2.681-0.081-24.566 0-44.48 19.915-44.48 44.48 0 0.943 0.029 1.88 0.087 2.808l-0.006-0.127v47.080h-94.161c-0.757-0.015-1.65-0.023-2.544-0.023-76.613 0-138.72 62.107-138.72 138.72 0 0.895 0.008 1.787 0.025 2.678l-0.002-0.134v659.127c-0.015 0.757-0.023 1.65-0.023 2.544 0 76.613 62.107 138.72 138.72 138.72 0.895 0 1.787-0.008 2.678-0.025l-0.134 0.002h659.126c0.757 0.015 1.65 0.023 2.544 0.023 76.613 0 138.72-62.107 138.72-138.72 0-0.895-0.008-1.787-0.025-2.678l0.002 0.134v-659.127c0.015-0.757 0.023-1.65 0.023-2.544 0-76.613-62.107-138.72-138.72-138.72-0.895 0-1.787 0.008-2.678 0.025l0.134-0.002zM176.552 188.322h94.161v47.080c-0.052 0.801-0.081 1.738-0.081 2.681 0 24.566 19.915 44.48 44.48 44.48 0.943 0 1.88-0.029 2.808-0.087l-0.127 0.006c0.801 0.052 1.738 0.081 2.681 0.081 24.566 0 44.48-19.915 44.48-44.48 0-0.943-0.029-1.879-0.087-2.808l0.006 0.127v-47.080h282.483v47.080c0 26.002 21.079 47.081 47.081 47.081s47.081-21.079 47.081-47.081h0v-47.080h94.161c0.801-0.052 1.738-0.081 2.681-0.081 24.566 0 44.48 19.915 44.48 44.48 0 0.943-0.029 1.879-0.087 2.808l0.006-0.127v141.241h-753.288v-141.241c-0.052-0.801-0.081-1.738-0.081-2.681 0-24.566 19.915-44.48 44.48-44.48 0.943 0 1.88 0.029 2.808 0.087l-0.127-0.006zM835.678 941.609h-659.126c-0.801 0.052-1.738 0.081-2.681 0.081-24.566 0-44.48-19.915-44.48-44.48 0-0.943 0.029-1.879 0.087-2.808l-0.006 0.127v-423.724h753.287v423.724c0.052 0.801 0.081 1.738 0.081 2.681 0 24.566-19.915 44.48-44.48 44.48-0.943 0-1.88-0.029-2.808-0.087l0.127 0.006z"
        ],
        "attrs": [],
        "isMulticolor": false,
        "isMulticolor2": false,
        "grid": 0,
        "tags": [
          "calendar"
        ],
        "colorPermutations": {
          "12020301": [
            {}
          ]
        }
      },
      "attrs": [],
      "properties": {
        "order": 13,
        "id": 37,
        "name": "calendar",
        "prevSize": 32,
        "code": 59656
      },
      "setIdx": 0,
      "setId": 1,
      "iconIdx": 16
    },
    {
      "icon": {
        "paths": [
          "M897.275 625.778h-521.147l11.636 56.889h477.188c27.38 0 47.673 25.424 41.605 52.123l-9.808 43.157c33.228 16.13 56.14 50.192 56.14 89.609 0 55.47-45.367 100.345-101.020 99.545-53.019-0.763-96.622-43.788-98.053-96.795-0.782-28.955 10.818-55.198 29.872-73.863h-372.708c18.448 18.073 29.909 43.248 29.909 71.113 0 56.556-47.161 102.1-104.302 99.445-50.738-2.356-92.002-43.351-94.668-94.075-2.059-39.172 18.553-73.698 49.868-91.708l-124.884-610.551h-124.236c-23.564 0-42.667-19.102-42.667-42.667v-28.444c0-23.564 19.102-42.667 42.667-42.667h182.274c20.268 0 37.739 14.26 41.801 34.116l16.295 79.662h698.279c27.38 0 47.673 25.424 41.605 52.123l-84.041 369.778c-4.414 19.426-21.684 33.211-41.605 33.211zM725.333 355.556h-85.333v-71.111c0-15.71-12.734-28.444-28.444-28.444h-28.444c-15.71 0-28.444 12.734-28.444 28.444v71.111h-85.333c-15.71 0-28.444 12.734-28.444 28.444v28.444c0 15.71 12.734 28.444 28.444 28.444h85.333v71.111c0 15.71 12.734 28.444 28.444 28.444h28.444c15.71 0 28.444-12.734 28.444-28.444v-71.111h85.333c15.71 0 28.444-12.734 28.444-28.444v-28.444c0-15.71-12.734-28.444-28.444-28.444z"
        ],
        "attrs": [],
        "isMulticolor": false,
        "isMulticolor2": false,
        "grid": 0,
        "tags": [
          "cart-plus"
        ],
        "colorPermutations": {
          "12020301": [
            {}
          ]
        }
      },
      "attrs": [],
      "properties": {
        "order": 14,
        "id": 36,
        "name": "cart-plus",
        "prevSize": 32,
        "code": 59657
      },
      "setIdx": 0,
      "setId": 1,
      "iconIdx": 17
    },
    {
      "icon": {
        "paths": [
          "M965.973 450.56h-180.907c-27.307 0-44.373 17.067-44.373 44.373v453.973c0 27.307 17.067 44.373 44.373 44.373h180.907c27.307 0 44.373-17.067 44.373-44.373v-453.973c3.413-27.307-17.067-44.373-44.373-44.373zM921.6 904.533h-92.16v-365.227h92.16v365.227zM604.16 675.84h-180.907c-27.307 0-44.373 17.067-44.373 44.373v228.693c0 27.307 17.067 44.373 44.373 44.373h180.907c27.307 0 44.373-17.067 44.373-44.373v-228.693c0-23.893-17.067-44.373-44.373-44.373zM556.373 904.533h-92.16v-136.533h92.16v136.533zM238.933 860.16c27.307 0 44.373 17.067 44.373 44.373v44.373c0 27.307-17.067 44.373-44.373 44.373h-180.907c-27.307 0-44.373-17.067-44.373-44.373v-44.373c0-27.307 17.067-44.373 44.373-44.373h180.907zM1013.76 85.333v228.693c0 27.307-17.067 44.373-44.373 44.373s-44.373-17.067-44.373-44.373v-119.467l-358.4 354.987c-17.067 17.067-44.373 17.067-64.853 0l-105.813-105.813-262.827 262.827c-10.24 10.24-17.067 13.653-30.72 13.653s-23.893-3.413-30.72-13.653c-17.067-17.067-17.067-44.373 0-64.853l296.96-296.96c17.067-17.067 44.373-17.067 64.853 0l105.813 105.813 324.267-324.267h-119.467c-27.307 0-44.373-17.067-44.373-44.373s17.067-44.373 44.373-44.373h228.693c3.413 0 13.653 0 17.067 3.413 10.24 3.413 17.067 13.653 23.893 23.893 0 6.827 0 17.067 0 20.48z"
        ],
        "attrs": [],
        "isMulticolor": false,
        "isMulticolor2": false,
        "grid": 0,
        "tags": [
          "chart-up"
        ],
        "colorPermutations": {
          "12020301": [
            {}
          ]
        }
      },
      "attrs": [],
      "properties": {
        "order": 15,
        "id": 35,
        "name": "chart-up",
        "prevSize": 32,
        "code": 59658
      },
      "setIdx": 0,
      "setId": 1,
      "iconIdx": 18
    },
    {
      "icon": {
        "paths": [
          "M960.6 264.6l-567.2 567c-10.4 10.4-20.6 15.4-36 15.4s-25.8-5.2-36-15.4l-258-257.8c-20.6-20.6-20.6-51.6 0-72.2s51.6-20.6 72.2 0l221.8 221.8 531-531c20.6-20.6 51.6-20.6 72.2 0s20.6 51.6 0 72.2z"
        ],
        "attrs": [],
        "isMulticolor": false,
        "isMulticolor2": false,
        "grid": 0,
        "tags": [
          "check"
        ],
        "colorPermutations": {
          "12020301": [
            {}
          ]
        }
      },
      "attrs": [],
      "properties": {
        "order": 16,
        "id": 34,
        "name": "check",
        "prevSize": 32,
        "code": 59659
      },
      "setIdx": 0,
      "setId": 1,
      "iconIdx": 19
    },
    {
      "icon": {
        "paths": [
          "M884.682 465.502c-27.937 0-46.562 18.625-46.562 46.562v325.936c0 27.937-18.671 46.562-46.562 46.562h-651.871c-27.937 0-46.562-18.625-46.562-46.562v-651.871c0-27.937 18.625-46.562 46.562-46.562h512.185c27.891 0 46.562-18.625 46.562-46.562s-18.671-46.562-46.562-46.562h-512.184c-79.156 0-139.687 60.531-139.687 139.687v651.871c0 79.156 60.531 139.687 139.687 139.687h651.871c79.156 0 139.687-60.531 139.687-139.687v-325.936c0-27.937-18.671-46.562-46.562-46.562zM1010.4 125.598l-512.184 512.184c-9.312 9.312-18.625 13.969-32.594 13.969s-23.281-4.656-32.594-13.969l-139.687-139.687c-8.341-8.341-13.501-19.865-13.501-32.594 0-25.457 20.637-46.094 46.094-46.094 12.729 0 24.252 5.159 32.594 13.501v0l107.093 107.093 479.591-479.591c8.345-8.36 19.881-13.532 32.625-13.532 25.457 0 46.094 20.637 46.094 46.094 0 12.744-5.172 24.28-13.531 32.624l-0.001 0.001z"
        ],
        "attrs": [],
        "isMulticolor": false,
        "isMulticolor2": false,
        "grid": 0,
        "tags": [
          "check-square"
        ],
        "colorPermutations": {
          "12020301": [
            {}
          ]
        }
      },
      "attrs": [],
      "properties": {
        "order": 17,
        "id": 33,
        "name": "check-square",
        "prevSize": 32,
        "code": 59660
      },
      "setIdx": 0,
      "setId": 1,
      "iconIdx": 20
    },
    {
      "icon": {
        "paths": [
          "M368 144c0-79.53 64.47-144 144-144s144 64.47 144 144c0 79.528-64.47 144-144 144s-144-64.472-144-144zM877.254 146.746c-24.992-24.994-65.516-24.994-90.508 0l-173.256 173.254h-202.982l-173.254-173.254c-24.992-24.994-65.516-24.994-90.508 0-24.994 24.994-24.994 65.516 0 90.51l189.254 189.252v533.492c0 35.346 28.654 64 64 64h32c35.346 0 64-28.654 64-64v-224h32v224c0 35.346 28.654 64 64 64h32c35.346 0 64-28.654 64-64v-533.492l189.254-189.254c24.994-24.994 24.994-65.514 0-90.508z"
        ],
        "attrs": [],
        "isMulticolor": false,
        "isMulticolor2": false,
        "grid": 0,
        "tags": [
          "child"
        ],
        "colorPermutations": {
          "12020301": [
            {}
          ]
        }
      },
      "attrs": [],
      "properties": {
        "order": 18,
        "id": 32,
        "name": "child",
        "prevSize": 32,
        "code": 59661
      },
      "setIdx": 0,
      "setId": 1,
      "iconIdx": 21
    },
    {
      "icon": {
        "paths": [
          "M548.549 778.935l460.335-460.488c20.155-20.206 20.155-52.943 0-73.2-20.155-20.206-52.892-20.206-73.047 0l-423.81 423.963-423.81-423.912c-20.155-20.206-52.892-20.206-73.098 0-20.155 20.206-20.155 52.994 0 73.2l460.335 460.488c19.947 19.9 53.198 19.9 73.093-0.051z"
        ],
        "attrs": [],
        "isMulticolor": false,
        "isMulticolor2": false,
        "grid": 0,
        "tags": [
          "down-arrow-o"
        ],
        "colorPermutations": {
          "12020301": [
            {}
          ]
        }
      },
      "attrs": [],
      "properties": {
        "order": 19,
        "id": 31,
        "name": "down-arrow-o",
        "prevSize": 32,
        "code": 59662
      },
      "setIdx": 0,
      "setId": 1,
      "iconIdx": 22
    },
    {
      "icon": {
        "paths": [
          "M884.364 837.818h-744.727c-0.792 0.051-1.718 0.080-2.651 0.080-24.287 0-43.975-19.688-43.975-43.975 0-0.933 0.029-1.858 0.086-2.776l-0.006 0.126v-470.109l390.982 274.618c7.993 4.936 17.482 8.262 27.649 9.286l0.278 0.023c10.446-1.047 19.934-4.373 28.213-9.473l-0.286 0.164 390.982-274.618v470.109c0.051 0.792 0.080 1.718 0.080 2.651 0 24.287-19.688 43.975-43.975 43.975-0.933 0-1.858-0.029-2.776-0.086l0.126 0.006zM139.636 186.182h744.727c0.13-0.001 0.283-0.002 0.436-0.002 18.648 0 34.631 11.412 41.346 27.633l0.109 0.297-414.255 288.582-414.255-288.582c6.824-16.518 22.807-27.929 41.455-27.929 0.153 0 0.306 0.001 0.459 0.002l-0.023-0zM884.364 93.091h-744.727c-0.749-0.015-1.631-0.023-2.516-0.023-75.742 0-137.144 61.401-137.144 137.144 0 0.885 0.008 1.767 0.025 2.648l-0.002-0.132v558.545c-0.015 0.749-0.023 1.631-0.023 2.516 0 75.742 61.401 137.144 137.144 137.144 0.885 0 1.767-0.008 2.648-0.025l-0.132 0.002h744.727c0.749 0.015 1.631 0.023 2.516 0.023 75.742 0 137.144-61.401 137.144-137.144 0-0.885-0.008-1.767-0.025-2.648l0.002 0.132v-558.545c0.015-0.749 0.023-1.631 0.023-2.516 0-75.742-61.401-137.144-137.144-137.144-0.885 0-1.767 0.008-2.648 0.025l0.132-0.002z"
        ],
        "attrs": [],
        "isMulticolor": false,
        "isMulticolor2": false,
        "grid": 0,
        "tags": [
          "envelope"
        ],
        "colorPermutations": {
          "12020301": [
            {}
          ]
        }
      },
      "attrs": [],
      "properties": {
        "order": 20,
        "id": 30,
        "name": "envelope",
        "prevSize": 32,
        "code": 59663
      },
      "setIdx": 0,
      "setId": 1,
      "iconIdx": 23
    },
    {
      "icon": {
        "paths": [
          "M512 597.333c-47.036-0.121-85.12-38.28-85.12-85.333 0-47.128 38.205-85.333 85.333-85.333s85.333 38.205 85.333 85.333l0 0c-0.194 47.125-38.405 85.261-85.54 85.333l-0.007 0zM512 341.333c-94.11 0.194-170.325 76.53-170.325 170.666 0 94.257 76.41 170.667 170.667 170.667s170.666-76.41 170.667-170.666l-0 0c-0.387-94.221-76.761-170.474-170.99-170.667l-0.018-0zM512 810.667c-230.869 0-380.501-230.4-423.296-298.667 38.528-68.267 192.427-298.667 423.296-298.667s380.544 230.4 423.296 298.667c-42.752 68.267-192.427 298.667-423.296 298.667zM1020.8 494.933c-8.533-17.067-188.117-366.933-508.8-366.933-320.64 0-500.224 349.867-508.8 366.933-2.028 5.724-3.2 12.325-3.2 19.2s1.172 13.476 3.327 19.615l-0.127-0.415c8.576 12.8 188.16 362.667 508.8 362.667 320.683 0 500.267-349.867 508.8-366.933 2.025-5.061 3.2-10.926 3.2-17.067s-1.175-12.006-3.312-17.385l0.112 0.319z"
        ],
        "attrs": [],
        "isMulticolor": false,
        "isMulticolor2": false,
        "grid": 0,
        "tags": [
          "eye"
        ],
        "colorPermutations": {
          "12020301": [
            {}
          ]
        }
      },
      "attrs": [],
      "properties": {
        "order": 21,
        "id": 29,
        "name": "eye",
        "prevSize": 32,
        "code": 59664
      },
      "setIdx": 0,
      "setId": 1,
      "iconIdx": 24
    },
    {
      "icon": {
        "paths": [
          "M512.147 597.468c-47.050-0.121-85.145-38.291-85.145-85.358 0-47.142 38.216-85.358 85.358-85.358s85.358 38.216 85.358 85.358v0c-0.194 47.138-38.416 85.285-85.564 85.358l-0.007 0zM512.147 341.394c-94.064 0-171.057 76.822-171.057 170.716s76.993 170.716 171.057 170.716c94.107 0 171.057-76.822 171.057-170.716s-76.95-170.716-171.057-170.716zM512.147 810.862c-230.935 0-380.61-230.466-423.417-298.752 38.539-68.286 192.482-298.752 423.417-298.752s380.653 230.466 423.417 298.752c-42.764 68.286-192.482 298.752-423.417 298.752zM1021.093 495.038c-8.536-17.072-188.171-367.038-508.946-367.038-320.732 0-500.367 349.967-508.946 367.038-2.029 5.725-3.201 12.329-3.201 19.206s1.172 13.48 3.328 19.62l-0.127-0.415c8.578 12.804 188.214 362.771 508.946 362.771 320.775 0 500.41-349.967 508.946-367.038 4.268-8.536 4.268-25.607 0-34.143z"
        ],
        "attrs": [],
        "isMulticolor": false,
        "isMulticolor2": false,
        "grid": 0,
        "tags": [
          "eye-o"
        ],
        "colorPermutations": {
          "12020301": [
            {}
          ]
        }
      },
      "attrs": [],
      "properties": {
        "order": 22,
        "id": 28,
        "name": "eye-o",
        "prevSize": 32,
        "code": 59665
      },
      "setIdx": 0,
      "setId": 1,
      "iconIdx": 25
    },
    {
      "icon": {
        "paths": [
          "M629.658 270.984h141.19c22.846 0 41.364-18.52 41.364-41.364v-188.256c0.002-22.844-18.516-41.364-41.362-41.364h-141.19c-152.564 0-276.682 124.12-276.682 276.682v99.826h-99.826c-22.844 0-41.364 18.52-41.364 41.364v188.254c0 22.846 18.52 41.364 41.364 41.364h99.826v335.144c0 22.846 18.52 41.364 41.364 41.364h188.254c22.846 0 41.364-18.518 41.364-41.364v-335.142h99.826c18.98 0 35.526-12.916 40.13-31.332l47.064-188.254c3.088-12.358 0.312-25.45-7.526-35.488-7.838-10.040-19.864-15.908-32.602-15.908h-146.892v-99.826c0-3.144 2.556-5.7 5.698-5.7zM582.596 459.238h135.274l-26.382 105.526h-108.894c-22.846 0-41.364 18.518-41.364 41.364v335.144h-105.526v-335.144c0-22.846-18.52-41.364-41.364-41.364h-99.826v-105.526h99.826c22.844 0 41.364-18.52 41.364-41.364v-141.19c0-106.946 87.006-193.954 193.954-193.954h99.826v105.526h-99.826c-48.76 0-88.428 39.67-88.428 88.428v141.19c0 22.844 18.52 41.364 41.366 41.364z"
        ],
        "attrs": [],
        "isMulticolor": false,
        "isMulticolor2": false,
        "grid": 0,
        "tags": [
          "facebook"
        ],
        "colorPermutations": {
          "12020301": [
            {}
          ]
        }
      },
      "attrs": [],
      "properties": {
        "order": 23,
        "id": 27,
        "name": "facebook",
        "prevSize": 32,
        "code": 59666
      },
      "setIdx": 0,
      "setId": 1,
      "iconIdx": 26
    },
    {
      "icon": {
        "paths": [
          "M767.965 0.213l-132.79-0.213c-149.185 0-245.595 98.913-245.595 252.008v116.192h-133.514c-11.537 0-20.88 9.353-20.88 20.891v168.35c0 11.537 9.353 20.88 20.88 20.88h133.514v424.8c0 11.537 9.343 20.88 20.88 20.88h174.198c11.537 0 20.88-9.353 20.88-20.88v-424.8h156.109c11.537 0 20.88-9.343 20.88-20.88l0.064-168.35c0-5.54-2.205-10.845-6.115-14.765s-9.236-6.125-14.776-6.125h-156.163v-98.498c0-47.342 11.282-71.375 72.952-71.375l89.453-0.032c11.527 0 20.869-9.353 20.869-20.88v-156.322c0-11.516-9.332-20.859-20.848-20.88z"
        ],
        "attrs": [],
        "isMulticolor": false,
        "isMulticolor2": false,
        "grid": 0,
        "tags": [
          "facebook-o"
        ],
        "colorPermutations": {
          "12020301": [
            {}
          ]
        }
      },
      "attrs": [],
      "properties": {
        "order": 24,
        "id": 26,
        "name": "facebook-o",
        "prevSize": 32,
        "code": 59667
      },
      "setIdx": 0,
      "setId": 1,
      "iconIdx": 27
    },
    {
      "icon": {
        "paths": [
          "M785.86 468.338h-366.733v122.245h223.744c-33.377 106.277-132.646 183.368-249.943 183.368-144.676 0-261.951-117.284-261.951-261.953 0-144.676 117.28-261.951 261.951-261.951 72.854 0 138.748 29.748 186.23 77.751l88.735-96.45c-70.868-69.442-167.905-112.275-274.965-112.275-217.007-0.002-392.928 175.919-392.928 392.926s175.921 392.932 392.93 392.932c190.092 0 356.522-134.999 392.932-314.344v-122.245l-0.002-0.002z",
          "M1024 468.13h-75.013v-75.013h-64.302v75.013h-75.013v64.295h75.013v75.015h64.302v-75.015h75.013z"
        ],
        "attrs": [],
        "isMulticolor": false,
        "isMulticolor2": false,
        "grid": 0,
        "tags": [
          "google-plus"
        ],
        "colorPermutations": {
          "12020301": [
            {},
            {}
          ]
        }
      },
      "attrs": [],
      "properties": {
        "order": 25,
        "id": 25,
        "name": "google-plus",
        "prevSize": 32,
        "code": 59668
      },
      "setIdx": 0,
      "setId": 1,
      "iconIdx": 28
    },
    {
      "icon": {
        "paths": [
          "M958.087 339.77l-423.724-329.189c-7.503-6.594-17.406-10.617-28.248-10.617s-20.745 4.023-28.296 10.659l0.048-0.041-423.724 329.189c-11.458 7.788-18.886 20.763-18.886 35.472 0 0.756 0.020 1.508 0.058 2.255l-0.004-0.105v517.297c-0.014 0.733-0.022 1.598-0.022 2.464 0 76.57 62.072 138.641 138.641 138.641 0.922 0 1.842-0.009 2.759-0.027l-0.138 0.002h659.126c0.78 0.016 1.7 0.025 2.622 0.025 76.57 0 138.641-62.072 138.641-138.641 0-0.867-0.008-1.731-0.024-2.594l0.002 0.13v-517.297c0.034-0.642 0.054-1.394 0.054-2.15 0-14.709-7.428-27.683-18.737-35.376l-0.149-0.095zM600.276 941.715h-188.322v-376.215h188.322zM882.759 894.688c0.050 0.793 0.079 1.72 0.079 2.654 0 24.552-19.904 44.456-44.456 44.456-0.951 0-1.896-0.030-2.832-0.089l0.128 0.006h-141.241v-423.242c0.050-0.793 0.079-1.72 0.079-2.654 0-24.552-19.904-44.456-44.456-44.456-0.951 0-1.896 0.030-2.832 0.089l0.128-0.006h-282.483c-0.808-0.052-1.753-0.082-2.704-0.082-24.552 0-44.456 19.904-44.456 44.456 0 0.934 0.029 1.86 0.085 2.78l-0.006-0.126v423.242h-141.241c-0.808 0.052-1.753 0.082-2.704 0.082-24.552 0-44.456-19.904-44.456-44.456 0-0.934 0.029-1.86 0.085-2.78l-0.006 0.126v-493.783l376.643-291.568 376.644 291.568z"
        ],
        "attrs": [],
        "isMulticolor": false,
        "isMulticolor2": false,
        "grid": 0,
        "tags": [
          "home"
        ],
        "colorPermutations": {
          "12020301": [
            {}
          ]
        }
      },
      "attrs": [],
      "properties": {
        "order": 26,
        "id": 23,
        "name": "home",
        "prevSize": 32,
        "code": 59669
      },
      "setIdx": 0,
      "setId": 1,
      "iconIdx": 29
    },
    {
      "icon": {
        "paths": [
          "M967.111 227.556h-227.556v-113.778c0-31.467-25.422-56.889-56.889-56.889h-341.333c-31.467 0-56.889 25.422-56.889 56.889v113.778h-227.556c-31.467 0-56.889 25.422-56.889 56.889v654.222c0 15.644 12.8 28.444 28.444 28.444h967.111c15.644 0 28.444-12.8 28.444-28.444v-654.222c0-31.467-25.422-56.889-56.889-56.889zM284.444 832c0 11.733-9.6 21.333-21.333 21.333h-71.111c-11.733 0-21.333-9.6-21.333-21.333v-71.111c0-11.733 9.6-21.333 21.333-21.333h71.111c11.733 0 21.333 9.6 21.333 21.333v71.111zM284.444 604.444c0 11.733-9.6 21.333-21.333 21.333h-71.111c-11.733 0-21.333-9.6-21.333-21.333v-71.111c0-11.733 9.6-21.333 21.333-21.333h71.111c11.733 0 21.333 9.6 21.333 21.333v71.111zM568.889 832c0 11.733-9.6 21.333-21.333 21.333h-71.111c-11.733 0-21.333-9.6-21.333-21.333v-71.111c0-11.733 9.6-21.333 21.333-21.333h71.111c11.733 0 21.333 9.6 21.333 21.333v71.111zM568.889 604.444c0 11.733-9.6 21.333-21.333 21.333h-71.111c-11.733 0-21.333-9.6-21.333-21.333v-71.111c0-11.733 9.6-21.333 21.333-21.333h71.111c11.733 0 21.333 9.6 21.333 21.333v71.111zM597.333 302.222c0 5.867-4.8 10.667-10.667 10.667h-46.222v46.222c0 5.867-4.8 10.667-10.667 10.667h-35.556c-5.867 0-10.667-4.8-10.667-10.667v-46.222h-46.222c-5.867 0-10.667-4.8-10.667-10.667v-35.556c0-5.867 4.8-10.667 10.667-10.667h46.222v-46.222c0-5.867 4.8-10.667 10.667-10.667h35.556c5.867 0 10.667 4.8 10.667 10.667v46.222h46.222c5.867 0 10.667 4.8 10.667 10.667v35.556zM853.333 832c0 11.733-9.6 21.333-21.333 21.333h-71.111c-11.733 0-21.333-9.6-21.333-21.333v-71.111c0-11.733 9.6-21.333 21.333-21.333h71.111c11.733 0 21.333 9.6 21.333 21.333v71.111zM853.333 604.444c0 11.733-9.6 21.333-21.333 21.333h-71.111c-11.733 0-21.333-9.6-21.333-21.333v-71.111c0-11.733 9.6-21.333 21.333-21.333h71.111c11.733 0 21.333 9.6 21.333 21.333v71.111z"
        ],
        "attrs": [],
        "isMulticolor": false,
        "isMulticolor2": false,
        "grid": 0,
        "tags": [
          "hospital"
        ],
        "colorPermutations": {
          "12020301": [
            {}
          ]
        }
      },
      "attrs": [],
      "properties": {
        "order": 27,
        "id": 22,
        "name": "hospital",
        "prevSize": 32,
        "code": 59670
      },
      "setIdx": 0,
      "setId": 1,
      "iconIdx": 30
    },
    {
      "icon": {
        "paths": [
          "M297.231 0c-163.692 0-297.231 133.538-297.231 297.231v429.538c0 163.692 133.538 297.231 297.231 297.231h429.538c163.692 0 297.231-133.538 297.231-297.231v-429.538c0-163.692-133.538-297.231-297.231-297.231zM297.231 78.769h429.538c121.077 0 218.462 97.231 218.462 218.462v429.538c0 121.077-97.231 218.462-218.462 218.462h-429.538c-121.077 0-218.462-97.231-218.462-218.462v-429.538c0-121.077 97.231-218.462 218.462-218.462zM807.385 157.538c-32.615 0-59.077 26.462-59.077 59.077s26.462 59.077 59.077 59.077c32.615 0 59.077-26.462 59.077-59.077s-26.462-59.077-59.077-59.077zM512 236.308c-151.846 0-275.692 123.846-275.692 275.692s123.846 275.692 275.692 275.692c151.846 0 275.692-123.846 275.692-275.692s-123.846-275.692-275.692-275.692zM512 315.077c109.231 0 196.923 87.692 196.923 196.923s-87.692 196.923-196.923 196.923c-109.231 0-196.923-87.692-196.923-196.923s87.692-196.923 196.923-196.923z"
        ],
        "attrs": [],
        "isMulticolor": false,
        "isMulticolor2": false,
        "grid": 0,
        "tags": [
          "instagram"
        ],
        "colorPermutations": {
          "12020301": [
            {}
          ]
        }
      },
      "attrs": [],
      "properties": {
        "order": 28,
        "id": 21,
        "name": "instagram",
        "prevSize": 32,
        "code": 59671
      },
      "setIdx": 0,
      "setId": 1,
      "iconIdx": 31
    },
    {
      "icon": {
        "paths": [
          "M982.636 470.636h-941.272c-22.844 0-41.364 18.52-41.364 41.364 0 22.846 18.52 41.364 41.364 41.364h941.272c22.846 0 41.364-18.518 41.364-41.364 0-22.844-18.518-41.364-41.364-41.364z",
          "M99.864 512l323.726-323.728c16.154-16.154 16.154-42.344 0-58.498-16.154-16.152-42.344-16.152-58.498 0l-352.976 352.976c-16.154 16.154-16.154 42.344 0 58.498l352.976 352.976c8.076 8.078 18.664 12.116 29.25 12.116s21.174-4.038 29.25-12.116c16.154-16.154 16.154-42.344 0-58.498l-323.728-323.726z"
        ],
        "attrs": [],
        "isMulticolor": false,
        "isMulticolor2": false,
        "grid": 0,
        "tags": [
          "left-arrow"
        ],
        "colorPermutations": {
          "12020301": [
            {},
            {}
          ]
        }
      },
      "attrs": [],
      "properties": {
        "order": 57,
        "id": 20,
        "name": "left-arrow",
        "prevSize": 32,
        "code": 59672
      },
      "setIdx": 0,
      "setId": 1,
      "iconIdx": 32
    },
    {
      "icon": {
        "paths": [
          "M41.364 553.364h941.272c22.844 0 41.364-18.52 41.364-41.364 0-22.846-18.52-41.364-41.364-41.364l-941.272 0c-22.846 0-41.364 18.518-41.364 41.364 0 22.844 18.518 41.364 41.364 41.364z",
          "M924.136 512l-323.726 323.728c-16.154 16.154-16.154 42.344 0 58.498 16.154 16.152 42.344 16.152 58.498 0l352.976-352.976c16.154-16.154 16.154-42.344 0-58.498l-352.976-352.976c-8.076-8.078-18.664-12.116-29.25-12.116s-21.174 4.038-29.25 12.116c-16.154 16.154-16.154 42.344 0 58.498l323.728 323.726z"
        ],
        "attrs": [],
        "isMulticolor": false,
        "isMulticolor2": false,
        "grid": 0,
        "tags": [
          "right-arrow"
        ],
        "colorPermutations": {
          "12020301": [
            {},
            {}
          ]
        }
      },
      "attrs": [],
      "properties": {
        "order": 58,
        "id": 49,
        "prevSize": 32,
        "code": 59695,
        "name": "right-arrow"
      },
      "setIdx": 0,
      "setId": 1,
      "iconIdx": 33
    },
    {
      "icon": {
        "paths": [
          "M920.835 153.882c-49.76-52.268-119.66-84.97-197.203-85.614l-0.119-0.001c-79.047 0.589-150.356 33.237-201.661 85.569l-0.046 0.047-17.54 18.022-17.54-18.022c-50.561-52.133-121.259-84.489-199.514-84.489s-148.953 32.355-199.446 84.418l-0.068 0.071c-54.105 52.273-87.699 125.478-87.699 206.529 0 0.263 0 0.527 0.001 0.79l-0-0.041c0.212 80.456 31.914 153.466 83.424 207.394l-0.11-0.116 385.874 396.532c7.633 8.321 18.557 13.518 30.694 13.518s23.061-5.197 30.667-13.488l0.028-0.031 385.874-396.532c51.4-53.812 83.102-126.822 83.314-207.236l0-0.042c0.757-7.286 1.189-15.743 1.189-24.301 0-72.265-30.784-137.34-79.953-182.827l-0.165-0.151zM859.446 505.356l-355.179 364.988-355.179-364.988c-35.279-36.049-57.048-85.442-57.048-139.919 0-1.503 0.017-3.002 0.050-4.497l-0.004 0.223c0.96-55.675 22.435-106.156 57.165-144.374l-0.162 0.181c33.021-36.070 80.316-58.605 132.875-58.605 1.075 0 2.148 0.009 3.218 0.028l-0.161-0.002c1.004-0.019 2.189-0.030 3.376-0.030 53.828 0 102.408 22.468 136.874 58.537l0.068 0.072 48.234 49.566c7.633 8.321 18.557 13.518 30.694 13.518s23.061-5.197 30.667-13.488l0.028-0.031 43.849-49.566c37.522-36.022 88.484-58.294 144.646-58.58l0.056-0c54.67 1.224 103.949 23.333 140.372 58.631l-0.054-0.053c34.568 38.038 56.042 88.518 57 143.999l0.003 0.194c-0.544 56.521-23.929 107.476-61.354 144.162l-0.034 0.033z"
        ],
        "attrs": [],
        "isMulticolor": false,
        "isMulticolor2": false,
        "grid": 0,
        "tags": [
          "like"
        ],
        "colorPermutations": {
          "12020301": [
            {}
          ]
        }
      },
      "attrs": [],
      "properties": {
        "order": 30,
        "id": 19,
        "name": "like",
        "prevSize": 32,
        "code": 59673
      },
      "setIdx": 0,
      "setId": 1,
      "iconIdx": 34
    },
    {
      "icon": {
        "paths": [
          "M522.667 0c-235.355 0.711-425.956 191.312-426.667 426.599l-0 0.068c0 315.733 388.267 580.266 401.067 588.8 7.327 4.524 16.025 7.574 25.345 8.512l0.255 0.021c9.575-0.96 18.273-4.009 25.862-8.683l-0.262 0.15c12.8-8.533 401.067-273.067 401.067-588.8-0.711-235.355-191.312-425.956-426.599-426.667l-0.068-0zM522.667 930.133c-81.067-59.733-341.333-273.066-341.333-503.466-0-188.513 152.82-341.333 341.333-341.333s341.333 152.82 341.333 341.333v0c-0.001 230.4-260.267 443.733-341.334 503.466zM522.667 256c-94.257 0-170.667 76.41-170.667 170.667s76.41 170.667 170.667 170.667c94.257 0 170.667-76.41 170.667-170.667v0c-0.284-94.142-76.525-170.382-170.64-170.667l-0.027-0zM522.667 512c-47.128 0-85.333-38.205-85.333-85.333s38.205-85.333 85.333-85.333c47.128 0 85.333 38.205 85.333 85.333v0c-0.142 47.071-38.262 85.191-85.32 85.333l-0.014 0z"
        ],
        "attrs": [],
        "isMulticolor": false,
        "isMulticolor2": false,
        "grid": 0,
        "tags": [
          "marker-stroke"
        ],
        "colorPermutations": {
          "12020301": [
            {}
          ]
        }
      },
      "attrs": [],
      "properties": {
        "order": 31,
        "id": 18,
        "name": "marker-stroke",
        "prevSize": 32,
        "code": 59674
      },
      "setIdx": 0,
      "setId": 1,
      "iconIdx": 35
    },
    {
      "icon": {
        "paths": [
          "M768 320v-64c0-141.16-114.842-256-256-256-141.16 0-256 114.84-256 256v64h-192v544c0 88.366 71.634 160 160 160h576c88.366 0 160-71.634 160-160v-544h-192zM384 256c0-70.58 57.42-128 128-128s128 57.42 128 128v64h-256v-64zM704 496c-26.51 0-48-21.49-48-48s21.49-48 48-48 48 21.49 48 48-21.49 48-48 48zM320 496c-26.51 0-48-21.49-48-48s21.49-48 48-48 48 21.49 48 48-21.49 48-48 48z"
        ],
        "attrs": [],
        "isMulticolor": false,
        "isMulticolor2": false,
        "grid": 0,
        "tags": [
          "market"
        ],
        "colorPermutations": {
          "12020301": [
            {}
          ]
        }
      },
      "attrs": [],
      "properties": {
        "order": 32,
        "id": 17,
        "name": "market",
        "prevSize": 32,
        "code": 59675
      },
      "setIdx": 0,
      "setId": 1,
      "iconIdx": 36
    },
    {
      "icon": {
        "paths": [
          "M707.491 363.055c13.964 0 23.273-4.655 32.582-13.964l130.327-130.327c8.316-8.335 13.458-19.839 13.458-32.544 0-25.448-20.63-46.078-46.078-46.078-12.705 0-24.209 5.142-32.545 13.459l0.001-0.001-130.327 130.327c-8.61 8.211-13.964 19.771-13.964 32.582s5.354 24.371 13.946 32.565l0.018 0.017c8.493 8.166 19.878 13.379 32.471 13.96l0.111 0.004zM283.927 674.909l-130.327 130.327c-8.61 8.211-13.964 19.771-13.964 32.582s5.354 24.371 13.946 32.565l0.018 0.017c8.493 8.166 19.878 13.379 32.471 13.96l0.111 0.004c12.704-0.585 24.088-5.798 32.598-13.979l-0.017 0.016 130.327-130.327c8.61-8.211 13.964-19.771 13.964-32.582s-5.354-24.371-13.946-32.565l-0.018-0.017c-18.618-18.618-51.2-18.618-65.164 0zM977.455 465.454h-186.182c-27.927 0-46.546 18.618-46.546 46.546s18.618 46.546 46.546 46.546h186.182c27.927 0 46.546-18.618 46.546-46.546s-18.618-46.546-46.546-46.546zM279.273 512c0-27.927-18.618-46.546-46.546-46.546h-186.182c-27.927 0-46.546 18.618-46.546 46.546s18.618 46.546 46.546 46.546h186.182c27.927 0 46.546-18.618 46.546-46.546zM740.073 674.909c-8.338-8.338-19.858-13.496-32.582-13.496-25.448 0-46.078 20.63-46.078 46.078 0 12.724 5.157 24.243 13.496 32.582l130.327 130.327c8.211 8.61 19.771 13.964 32.582 13.964s24.371-5.354 32.565-13.946l0.017-0.018c8.61-8.211 13.964-19.771 13.964-32.582s-5.354-24.371-13.946-32.565l-0.018-0.017zM214.109 148.946c-8.336-8.323-19.845-13.471-32.557-13.471-25.448 0-46.078 20.63-46.078 46.078 0 12.711 5.147 24.221 13.471 32.557l-0.001-0.001 130.327 130.327c8.493 8.166 19.878 13.379 32.471 13.96l0.111 0.004c12.704-0.585 24.088-5.798 32.598-13.979l-0.017 0.016c8.61-8.211 13.964-19.771 13.964-32.582s-5.354-24.371-13.946-32.565l-0.018-0.017zM512 744.727c-27.927 0-46.546 18.618-46.546 46.546v186.182c0 27.927 18.618 46.546 46.546 46.546s46.546-18.618 46.546-46.546v-186.182c0-27.927-18.618-46.546-46.546-46.546zM558.546 46.545v186.182c0 27.927-18.618 46.546-46.546 46.546s-46.546-18.618-46.546-46.546v-186.182c0-27.927 18.618-46.546 46.546-46.546s46.546 18.618 46.546 46.546z"
        ],
        "attrs": [],
        "isMulticolor": false,
        "isMulticolor2": false,
        "grid": 0,
        "tags": [
          "multiply"
        ],
        "colorPermutations": {
          "12020301": [
            {}
          ]
        }
      },
      "attrs": [],
      "properties": {
        "order": 33,
        "id": 16,
        "name": "multiply",
        "prevSize": 32,
        "code": 59676
      },
      "setIdx": 0,
      "setId": 1,
      "iconIdx": 37
    },
    {
      "icon": {
        "paths": [
          "M502.93 333.831c-25.984 0-43.122 2.496-52.994 5.014v166.692c11.276 2.518 24.514 3.343 42.943 3.343 67.858 0 109.732-34.364 109.732-92.127 0.022-51.947-36.035-82.923-99.681-82.923z",
          "M891.426 0h-758.852c-67.011 0-121.298 54.309-121.298 121.298v781.427c0 66.989 54.309 121.275 121.298 121.275h758.852c67.011 0 121.275-54.309 121.275-121.275v-781.427c0.022-67.011-54.264-121.298-121.275-121.298zM937.98 883.27c0 36.481-29.55 65.986-65.986 65.986h-721.368c-36.458 0-66.008-29.55-66.008-65.986v-741.113c0-36.436 29.55-65.986 66.008-65.986h721.346c36.458 0 65.986 29.55 65.986 65.986l0.022 741.113z",
          "M871.971 122.724h-721.346c-10.741 0-19.477 8.691-19.477 19.455v741.113c0 10.697 8.713 19.455 19.477 19.455h721.346c10.719 0 19.455-8.736 19.455-19.455v-741.135c0-10.741-8.713-19.433-19.455-19.433zM677.355 547.456c-43.523 41.027-108.239 59.457-183.651 59.457-16.736 0-31.065-0.847-43.768-2.518v202.393h-125.532v-557.573c39.489-6.708 94.4-11.744 172.308-11.744 78.756 0 134.736 15.087 172.464 45.261 35.99 28.458 60.237 75.39 60.237 130.657 0 55.334-18.497 102.266-52.058 134.067z"
        ],
        "attrs": [],
        "isMulticolor": false,
        "isMulticolor2": false,
        "grid": 0,
        "tags": [
          "parking"
        ],
        "colorPermutations": {
          "12020301": [
            {},
            {},
            {}
          ]
        }
      },
      "attrs": [],
      "properties": {
        "order": 34,
        "id": 15,
        "name": "parking",
        "prevSize": 32,
        "code": 59677
      },
      "setIdx": 0,
      "setId": 1,
      "iconIdx": 38
    },
    {
      "icon": {
        "paths": [
          "M864 64h-704c-53 0-96 43-96 96v704c0 53 43 96 96 96h704c53 0 96-43 96-96v-704c0-53-43-96-96-96zM800 568c0 13.2-10.8 24-24 24h-184v184c0 13.2-10.8 24-24 24h-112c-13.2 0-24-10.8-24-24v-184h-184c-13.2 0-24-10.8-24-24v-112c0-13.2 10.8-24 24-24h184v-184c0-13.2 10.8-24 24-24h112c13.2 0 24 10.8 24 24v184h184c13.2 0 24 10.8 24 24v112z"
        ],
        "attrs": [],
        "isMulticolor": false,
        "isMulticolor2": false,
        "grid": 0,
        "tags": [
          "pharmacy"
        ],
        "colorPermutations": {
          "12020301": [
            {}
          ]
        }
      },
      "attrs": [],
      "properties": {
        "order": 35,
        "id": 14,
        "name": "pharmacy",
        "prevSize": 32,
        "code": 59678
      },
      "setIdx": 0,
      "setId": 1,
      "iconIdx": 39
    },
    {
      "icon": {
        "paths": [
          "M930.537 743.471v140.241c0.010 0.349 0.016 0.759 0.016 1.171 0 12.51-5.418 23.755-14.035 31.516l-0.038 0.034c-8.378 8.785-20.172 14.247-33.243 14.247-1.472 0-2.927-0.069-4.363-0.205l0.184 0.014c-144.119-15.831-274.36-64.25-386.763-137.699l3.369 2.065c-108.286-68.979-197.524-158.203-264.47-263.040l-2.050-3.432c-71.356-109.058-119.771-239.309-135.278-379.481l-0.356-3.961c0.312-12.108 3.748-23.35 9.527-33.032l-0.172 0.31c9.426-10.376 22.504-17.287 37.189-18.693l0.233-0.018h140.288c23.77 1.189 43.072 18.881 46.741 41.793l0.038 0.284c5.756 51.926 18.953 99.378 38.588 143.323l-1.212-3.035c1.133 4.535 1.783 9.741 1.783 15.1 0 13.56-4.164 26.148-11.282 36.555l0.144-0.222-60.788 56.087c-8.76 8.967-14.165 21.245-14.165 34.785 0 7.758 1.774 15.101 4.938 21.646l-0.13-0.297c71.012 126.48 172.761 228.229 295.391 297.249l3.849 1.992c6.457 4.039 14.302 6.435 22.706 6.435 13.43 0 25.431-6.117 33.369-15.718l0.058-0.073 60.788-60.788c7.848-8.709 19.166-14.159 31.758-14.159 7.189 0 13.964 1.777 19.908 4.916l-0.233-0.112c39.811 15.324 86.961 28.319 135.672 36.76l4.616 0.662c21.109 5.75 36.528 24.347 37.419 46.681l0.003 0.097zM902.423 603.183c-45.013-4.863-86.163-14.755-125.087-29.225l3.556 1.158c-14.217-4.991-30.608-7.875-47.673-7.875-39.536 0-75.458 15.477-102.036 40.704l0.065-0.061-32.721 32.721c-86.644-56.626-158.461-128.444-213.386-212.32l-1.7-2.767 32.721-32.768c25.313-26.23 40.909-61.984 40.909-101.38 0-17.277-2.999-33.853-8.506-49.237l0.319 1.020c-13.311-35.381-23.204-76.547-27.864-119.285l-0.203-2.291c-9.946-69.080-68.736-121.577-139.787-121.577-0.16 0-0.32 0-0.479 0.001l0.025-0h-154.345c-37.849 4.874-70.558 23.758-93.317 51.194l-0.192 0.239c-20.484 26.554-32.832 60.299-32.832 96.928 0 2.088 0.040 4.167 0.12 6.235l-0.009-0.298c17.798 159.844 71.168 304.324 151.993 429.401l-2.35-3.882c77.301 118.841 175.698 217.237 290.748 292.222l3.792 2.318c120.578 80.511 265.504 134.222 421.719 149.346l3.799 0.297h14.057c1.043 0.031 2.27 0.048 3.502 0.048 37.516 0 71.246-16.213 94.564-42.015l0.098-0.111c24.306-25.784 39.929-59.99 42.059-97.803l0.018-0.408v-140.241c0.001-0.146 0.001-0.318 0.001-0.491 0-71.054-52.496-129.846-120.819-139.708l-0.758-0.090z"
        ],
        "attrs": [],
        "isMulticolor": false,
        "isMulticolor2": false,
        "grid": 0,
        "tags": [
          "phone"
        ],
        "colorPermutations": {
          "12020301": [
            {}
          ]
        }
      },
      "attrs": [],
      "properties": {
        "order": 36,
        "id": 13,
        "name": "phone",
        "prevSize": 32,
        "code": 59679
      },
      "setIdx": 0,
      "setId": 1,
      "iconIdx": 40
    },
    {
      "icon": {
        "paths": [
          "M778.935 475.451l-460.488-460.335c-20.206-20.155-52.943-20.155-73.2 0-20.206 20.155-20.206 52.892 0 73.047l423.963 423.81-423.912 423.81c-20.206 20.155-20.206 52.892 0 73.098 20.206 20.155 52.994 20.155 73.2 0l460.488-460.335c19.9-19.947 19.9-53.198-0.051-73.093z"
        ],
        "attrs": [],
        "isMulticolor": false,
        "isMulticolor2": false,
        "grid": 0,
        "tags": [
          "right-arrow-o"
        ],
        "colorPermutations": {
          "12020301": [
            {}
          ]
        }
      },
      "attrs": [],
      "properties": {
        "order": 37,
        "id": 12,
        "name": "right-arrow-o",
        "prevSize": 32,
        "code": 59680
      },
      "setIdx": 0,
      "setId": 1,
      "iconIdx": 41
    },
    {
      "icon": {
        "paths": [
          "M996.614 420.808l-441.307 136.16c-12.967 3.955-27.871 6.232-43.307 6.232s-30.34-2.277-44.395-6.513l1.088 0.282-320.856-98.997c-13.702 18.301-17.629 36.88-19.069 61.336 14.877 8.957 24.832 25.261 24.832 43.893 0 19.123-10.491 35.786-26.024 44.578l25.915 196.954c1.008 7.658-4.96 14.469-12.691 14.469h-76.8c-7.725 0-13.699-6.805-12.691-14.47l25.915-196.954c-15.533-8.79-26.024-25.453-26.024-44.576 0-19.254 10.634-36.018 26.344-44.762 1.515-28.722 6.358-53.17 19.443-76.155l-69.603-21.475c-36.602-10.882-36.426-62.786 0-73.616l441.307-136.16c12.967-3.955 27.871-6.232 43.307-6.232s30.34 2.277 44.395 6.513l-1.088-0.282 441.307 136.16c36.603 10.882 36.427 62.786 0.002 73.616zM570.405 605.891l-0.331 0.102-0.331 0.098c-17.289 5.273-37.161 8.309-57.742 8.309s-40.452-3.036-59.191-8.684l1.45 0.375-0.331-0.098-241.794-74.614-20.134 134.221c0 56.554 143.269 102.4 320 102.4s320-45.846 320-102.4l-20.133-134.221-241.462 74.512z"
        ],
        "attrs": [],
        "isMulticolor": false,
        "isMulticolor2": false,
        "grid": 0,
        "tags": [
          "school"
        ],
        "colorPermutations": {
          "12020301": [
            {}
          ]
        }
      },
      "attrs": [],
      "properties": {
        "order": 38,
        "id": 11,
        "name": "school",
        "prevSize": 32,
        "code": 59681
      },
      "setIdx": 0,
      "setId": 1,
      "iconIdx": 42
    },
    {
      "icon": {
        "paths": [
          "M990 932.4l-235.6-235.6c58.4-71.2 93.6-162.4 93.6-261.8 0-228-185-413-413-413-228.2 0-413 185-413 413s184.8 413 413 413c99.4 0 190.4-35 261.6-93.4l235.6 235.4c16 16 41.8 16 57.8 0 16-15.8 16-41.8 0-57.6zM435 765.8c-182.6 0-331-148.4-331-330.8s148.4-331 331-331c182.4 0 331 148.6 331 331s-148.6 330.8-331 330.8z"
        ],
        "attrs": [],
        "isMulticolor": false,
        "isMulticolor2": false,
        "grid": 0,
        "tags": [
          "search"
        ],
        "colorPermutations": {
          "12020301": [
            {}
          ]
        }
      },
      "attrs": [],
      "properties": {
        "order": 39,
        "id": 10,
        "name": "search",
        "prevSize": 32,
        "code": 59682
      },
      "setIdx": 0,
      "setId": 1,
      "iconIdx": 43
    },
    {
      "icon": {
        "paths": [
          "M898.060 94.161l-376.643-94.161h-23.54l-376.644 94.161c-19.279 6.067-33.017 23.781-33.017 44.703 0 0.836 0.022 1.667 0.065 2.492l-0.005-0.115v376.644c0 306.023 386.060 503.761 404.892 513.177 4.708 4.708 9.416 4.708 18.832 4.708s14.124 0 18.832-4.708c18.832-9.416 404.892-207.154 404.892-513.177v-376.644c0.027-0.585 0.042-1.272 0.042-1.962 0-22.443-16.126-41.12-37.424-45.075l-0.283-0.044zM841.563 517.885c0 211.862-254.234 371.936-329.563 419.016-75.329-42.372-329.563-202.446-329.563-419.016v-338.979l329.563-84.745 329.563 84.745z"
        ],
        "attrs": [],
        "isMulticolor": false,
        "isMulticolor2": false,
        "grid": 0,
        "tags": [
          "shield"
        ],
        "colorPermutations": {
          "12020301": [
            {}
          ]
        }
      },
      "attrs": [],
      "properties": {
        "order": 40,
        "id": 9,
        "name": "shield",
        "prevSize": 32,
        "code": 59683
      },
      "setIdx": 0,
      "setId": 1,
      "iconIdx": 44
    },
    {
      "icon": {
        "paths": [
          "M805.885 1000.728c-5.801 0-11.627-1.386-16.964-4.19l-276.92-145.585-276.92 145.585c-12.29 6.457-27.179 5.383-38.41-2.778-11.233-8.158-16.856-21.988-14.51-35.676l52.885-308.356-224.032-218.378c-9.941-9.69-13.518-24.185-9.229-37.385 4.289-13.203 15.703-22.826 29.443-24.824l309.607-44.986 138.46-280.552c6.142-12.45 18.823-20.331 32.705-20.331 13.88 0 26.563 7.881 32.702 20.331l138.46 280.552 309.605 44.986c13.74 1.999 25.151 11.619 29.443 24.824 4.292 13.2 0.715 27.695-9.229 37.385l-224.035 218.38 52.887 308.356c2.346 13.681-3.28 27.517-14.51 35.676-6.352 4.616-13.874 6.965-21.44 6.965zM114.849 430.707l184.847 180.178c8.596 8.377 12.52 20.454 10.486 32.279l-43.635 254.418 228.479-120.125c10.627-5.585 23.319-5.585 33.945 0l228.479 120.119-43.638-254.412c-2.028-11.834 1.894-23.902 10.489-32.279l184.849-180.178-255.448-37.12c-11.878-1.727-22.149-9.185-27.462-19.952l-114.237-231.478-114.239 231.478c-5.31 10.764-15.584 18.224-27.462 19.952l-255.454 37.12z"
        ],
        "attrs": [],
        "isMulticolor": false,
        "isMulticolor2": false,
        "grid": 0,
        "tags": [
          "star-o"
        ],
        "colorPermutations": {
          "12020301": [
            {}
          ]
        }
      },
      "attrs": [],
      "properties": {
        "order": 41,
        "id": 8,
        "name": "star-o",
        "prevSize": 32,
        "code": 59684
      },
      "setIdx": 0,
      "setId": 1,
      "iconIdx": 45
    },
    {
      "icon": {
        "paths": [
          "M589.922 249.598l-269.996-241.996c-11.368-10.136-28.476-10.136-39.844 0l-269.996 241.996c-20.558 18.232-7.554 52.412 19.922 52.412h539.992c27.478 0 40.48-34.182 19.922-52.412z",
          "M570 964h-30c0-219.12 0-389.316 0-601.992h-479.992c0 212.638 0 382.882 0 601.992h-30c-16.582 0-30 13.418-30 30s13.418 30 30 30h60c16.582 0 30-13.418 30-30v-149.998h60v149.998c0 16.582 13.418 30 30 30s30-13.418 30-30v-30h119.998v30c0 16.582 13.418 30 30 30s30-13.418 30-30v-149.998h60v149.998c0 16.582 13.418 30 30 30h60c16.582 0 30-13.418 30-30-0.006-16.582-13.424-30-30.006-30zM180.006 784.004h-60v-60h60v60zM360.004 904.002h-119.998v-60h119.998v60zM360.004 784.004h-119.998v-60h119.998v60zM300.004 662.006c-66.182 0-119.998-53.818-119.998-119.998 0-66.182 53.818-119.998 119.998-119.998 66.182 0 119.998 53.818 119.998 119.998s-53.816 119.998-119.998 119.998zM480.002 784.004h-60v-60h60v60z",
          "M963.994 904.002h-105.864c-24.082 0-45.732-14.268-55.136-36.358l-66.24-216.54c-24.558-57.326-76.522-96.978-136.756-106.672v120.464c16.366 5.178 30.052 19.138 37.002 35.464l81.824 250.894c18.956 44.18 62.226 72.742 110.3 72.742h134.868c33.076 0 60-26.924 60-60s-26.922-59.994-59.998-59.994z"
        ],
        "attrs": [],
        "isMulticolor": false,
        "isMulticolor2": false,
        "grid": 0,
        "tags": [
          "toboggan"
        ],
        "colorPermutations": {
          "12020301": [
            {},
            {},
            {}
          ]
        }
      },
      "attrs": [],
      "properties": {
        "order": 42,
        "id": 7,
        "name": "toboggan",
        "prevSize": 32,
        "code": 59685
      },
      "setIdx": 0,
      "setId": 1,
      "iconIdx": 46
    },
    {
      "icon": {
        "paths": [
          "M882.66 750.858l-166.848-174.858h68.188c42.034 0 63.744-50.414 34.896-80.958l-165.316-175.042h66.42c41.756 0 63.702-49.938 35.174-80.662l-208-224.006c-18.97-20.428-51.352-20.458-70.348 0l-208 224.006c-28.414 30.6-6.752 80.662 35.174 80.662h66.42l-165.318 175.042c-28.86 30.56-7.116 80.958 34.898 80.958h68.188l-166.858 174.858c-29.068 30.452-7.48 81.142 34.72 81.142h239.95c0 65.562-22.376 98.52-67.99 135.012-23.56 18.848-10.182 56.988 19.99 56.988h288c30.172 0 43.552-38.138 19.99-56.988-39.536-31.628-67.984-63.33-67.99-134.992v-0.020h239.94c42.1 0 63.858-50.618 34.72-81.142z"
        ],
        "attrs": [],
        "isMulticolor": false,
        "isMulticolor2": false,
        "grid": 0,
        "tags": [
          "tree"
        ],
        "colorPermutations": {
          "12020301": [
            {}
          ]
        }
      },
      "attrs": [],
      "properties": {
        "order": 43,
        "id": 6,
        "name": "tree",
        "prevSize": 32,
        "code": 59686
      },
      "setIdx": 0,
      "setId": 1,
      "iconIdx": 47
    },
    {
      "icon": {
        "paths": [
          "M1000.331 186.389c2.309-6.928 3.464-14.432 3.464-21.939 0-37.527-30.020-68.702-67.547-69.279-0.577 0-1.155 0-1.732 0-1.155 0-2.887 0-4.041 0-10.392 0.577-20.207 3.464-28.867 8.083-2.887 1.155-5.196 2.887-7.505 4.041-1.155 0.577-2.309 1.155-3.464 1.732-17.896 6.928-36.371 13.856-55.423 20.784-31.752-23.092-69.279-40.412-113.734-50.227-5.196-1.155-10.392-2.887-15.588-2.887h-49.072c-5.773 0-12.124 2.309-17.896 3.464-38.68 10.392-79.094 24.824-116.042 55.423-50.227 42.144-80.826 95.835-90.639 157.61-101.031-21.36-184.745-70.434-253.445-152.99-13.279-15.588-32.331-23.092-53.115-23.092v0c-20.207 0-39.835 8.083-53.115 23.671-38.103 45.608-52.536 105.65-40.412 170.889 3.464 17.896 8.66 35.795 15.588 53.691-9.237 10.392-15.011 23.092-16.743 36.948-8.083 65.815 15.588 127.589 66.392 178.97-2.309 9.815-2.887 19.628-0.577 29.444 8.66 45.031 31.752 83.711 66.97 113.734-21.36 4.619-44.455 7.505-68.702 7.505-6.928 0-13.856 0-20.784-0.577-1.732 0-3.464 0-5.196 0-30.020 0-57.155 19.628-65.815 48.495-9.815 30.599 2.887 64.083 30.599 80.247 2.309 1.155 4.619 2.887 6.928 4.041 5.773 3.464 12.7 7.505 19.628 11.547 88.907 47.34 183.589 71.588 280.58 71.588 35.795 0 72.166-3.464 108.538-9.815 118.351-20.784 224.001-75.052 305.983-155.301s139.135-186.477 164.538-305.983c5.773-27.712 8.083-54.847 9.815-80.826 0.577-9.815 1.155-19.052 2.309-28.288 30.020-26.556 56-54.847 78.515-87.175 8.083-11.547 13.279-25.403 13.279-40.412-0.004-21.358-9.241-40.41-23.673-53.113zM876.206 323.794c-5.773 5.196-10.392 15.011-11.547 23.092-4.619 38.103-4.619 77.362-12.7 114.31-46.763 217.073-202.641 370.066-415.097 408.169-32.331 5.773-64.66 8.66-96.414 8.66-86.022 0-168.578-21.36-247.672-63.506-8.083-4.041-15.588-9.237-23.671-13.856 8.66 0.577 17.32 1.155 25.98 1.155 103.342 0 197.445-43.876 232.661-79.671-90.639-13.856-150.682-60.619-162.806-123.547 23.671-1.155 47.34-2.887 71.588-4.041-96.414-46.187-144.909-110.846-136.249-183.589 23.092 5.773 46.763 11.547 69.856 17.32-76.207-81.403-95.835-183.013-44.455-243.632 97.567 116.042 222.848 177.817 375.838 188.209-0.577-4.619-1.155-7.505-1.155-10.392-7.505-69.279 12.7-128.743 67.547-174.353 25.98-21.939 57.155-30.599 89.486-42.144 16.164 0 32.908 0 49.072 0 41.567 11.547 79.094 27.712 110.846 57.155 1.732 1.155 4.619 2.887 7.505 2.887 1.732 0 4.041 0 5.196-0.577 28.867-10.392 57.732-20.784 86.599-31.752 5.196-2.309 10.392-5.196 18.475-9.237-16.164 42.723-42.144 72.743-76.207 96.414 0.577 1.155 1.155 2.887 2.309 4.041 30.599-8.66 61.774-17.32 94.103-26.556-23.086 32.901-49.066 60.613-79.086 85.439z"
        ],
        "attrs": [],
        "isMulticolor": false,
        "isMulticolor2": false,
        "grid": 0,
        "tags": [
          "twitter"
        ],
        "colorPermutations": {
          "12020301": [
            {}
          ]
        }
      },
      "attrs": [],
      "properties": {
        "order": 44,
        "id": 5,
        "name": "twitter",
        "prevSize": 32,
        "code": 59687
      },
      "setIdx": 0,
      "setId": 1,
      "iconIdx": 48
    },
    {
      "icon": {
        "paths": [
          "M1024 194.523c-37.689 16.7-78.129 28.026-120.618 33.083 43.384-25.98 76.594-67.187 92.334-116.139-40.696 24.059-85.616 41.529-133.48 50.999-38.328-40.888-92.846-66.356-153.316-66.356-116.010 0-210.072 94.062-210.072 210.009 0 16.444 1.856 32.505 5.44 47.864-174.559-8.768-329.345-92.399-432.941-219.481-18.109 30.971-28.411 67.059-28.411 105.581 0 72.883 37.113 137.191 93.423 174.815-34.426-1.151-66.804-10.621-95.15-26.363v2.624c0 101.741 72.435 186.652 168.48 205.978-17.597 4.735-36.153 7.359-55.35 7.359-13.565 0-26.683-1.344-39.544-3.904 26.746 83.505 104.301 144.228 196.188 145.893-71.859 56.31-162.466 89.776-260.879 89.776-16.956 0-33.658-1.024-50.102-2.88 92.975 59.702 203.354 94.511 321.988 94.511 386.423 0 597.648-320.069 597.648-597.648l-0.704-27.195c41.271-29.437 76.976-66.421 105.067-108.526z"
        ],
        "attrs": [],
        "isMulticolor": false,
        "isMulticolor2": false,
        "grid": 0,
        "tags": [
          "twitter-o"
        ],
        "colorPermutations": {
          "12020301": [
            {}
          ]
        }
      },
      "attrs": [],
      "properties": {
        "order": 45,
        "id": 4,
        "name": "twitter-o",
        "prevSize": 32,
        "code": 59688
      },
      "setIdx": 0,
      "setId": 1,
      "iconIdx": 49
    },
    {
      "icon": {
        "paths": [
          "M888 99.8c-25.4-23.4-128.2-98-357.4-99 0 0-270.2-16.2-401.8 104.6-73.2 73.2-99 180.6-101.8 313.6s-6.2 382.2 234 449.8h0.2l-0.2 103.2s-1.6 41.8 26 50.2c33.2 10.4 52.8-21.4 84.6-55.6 17.4-18.8 41.4-46.4 59.6-67.4 164.4 13.8 290.6-17.8 305-22.4 33.2-10.8 221-34.8 251.4-284 31.6-257.2-15.2-419.6-99.6-493zM915.8 574c-25.8 208-178 221.2-206 230.2-12 3.8-123 31.4-262.4 22.4 0 0-104 125.4-136.4 158-10.6 10.6-22.2 9.6-22-11.4 0-13.8 0.8-171.4 0.8-171.4-0.2 0-0.2 0 0 0-203.6-56.4-191.6-268.6-189.4-379.6s23.2-202 85.2-263.2c111.4-101 340.8-86 340.8-86 193.8 0.8 286.6 59.2 308.2 78.8 71.4 61.2 107.8 207.6 81.2 422.2zM637.8 412.4c0.8 17.2-25 18.4-25.8 1.2-2.2-44-22.8-65.4-65.2-67.8-17.2-1-15.6-26.8 1.4-25.8 55.8 3 86.8 35 89.6 92.4zM678.4 435c2-84.8-51-151.2-151.6-158.6-17-1.2-15.2-27 1.8-25.8 116 8.4 177.8 88.2 175.6 185-0.2 17.2-26.2 16.4-25.8-0.6zM772.4 461.8c0.2 17.2-25.8 17.4-25.8 0.2-1.2-163-109.8-251.8-241.6-252.8-17-0.2-17-25.8 0-25.8 147.4 1 266 102.8 267.4 278.4zM749.8 658v0.4c-21.6 38-62 80-103.6 66.6l-0.4-0.6c-42.2-11.8-141.6-63-204.4-113-32.4-25.6-62-55.8-84.8-84.8-20.6-25.8-41.4-56.4-61.6-93.2-42.6-77-52-111.4-52-111.4-13.4-41.6 28.4-82 66.6-103.6h0.4c18.4-9.6 36-6.4 47.8 7.8 0 0 24.8 29.6 35.4 44.2 10 13.6 23.4 35.4 30.4 47.6 12.2 21.8 4.6 44-7.4 53.2l-24 19.2c-12.2 9.8-10.6 28-10.6 28s35.6 134.6 168.6 168.6c0 0 18.2 1.6 28-10.6l19.2-24c9.2-12 31.4-19.6 53.2-7.4 29.4 16.6 66.8 42.4 91.6 65.8 14 11.4 17.2 28.8 7.6 47.2z"
        ],
        "attrs": [],
        "isMulticolor": false,
        "isMulticolor2": false,
        "grid": 0,
        "tags": [
          "viber"
        ],
        "colorPermutations": {
          "12020301": [
            {}
          ]
        }
      },
      "attrs": [],
      "properties": {
        "order": 46,
        "id": 3,
        "name": "viber",
        "prevSize": 32,
        "code": 59689
      },
      "setIdx": 0,
      "setId": 1,
      "iconIdx": 50
    },
    {
      "icon": {
        "paths": [
          "M512 0c-283.006 0-512 229.014-512 512 0 283.006 229.014 512 512 512 283.006 0 512-229.014 512-512 0-283.006-229.014-512-512-512zM512 944c-238.786 0-432-193.23-432-432 0-238.786 193.23-432 432-432 238.786 0 432 193.23 432 432 0 238.786-193.23 432-432 432z",
          "M512 257.754c-22.092 0-40 17.908-40 40v257.586c0 22.092 17.908 40 40 40s40-17.908 40-40v-257.586c0-22.092-17.908-40-40-40z",
          "M566 698.32c0 29.823-24.177 54-54 54s-54-24.177-54-54c0-29.823 24.177-54 54-54s54 24.177 54 54z"
        ],
        "attrs": [],
        "isMulticolor": false,
        "isMulticolor2": false,
        "grid": 0,
        "tags": [
          "warning-o"
        ],
        "colorPermutations": {
          "12020301": [
            {},
            {},
            {}
          ]
        }
      },
      "attrs": [],
      "properties": {
        "order": 47,
        "id": 2,
        "name": "warning-o",
        "prevSize": 32,
        "code": 59690
      },
      "setIdx": 0,
      "setId": 1,
      "iconIdx": 51
    },
    {
      "icon": {
        "paths": [
          "M1011.842 953.132l-441.133-441.133 441.129-441.129c16.212-16.21 16.212-42.496 0-58.708-16.21-16.212-42.496-16.212-58.708 0l-441.129 441.129-441.133-441.129c-16.21-16.212-42.496-16.212-58.708 0-16.212 16.21-16.212 42.496 0 58.708l441.131 441.129-441.131 441.133c-16.212 16.212-16.212 42.496 0 58.708 16.21 16.21 42.496 16.212 58.708 0l441.133-441.133 441.133 441.133c16.21 16.21 42.496 16.212 58.708 0s16.212-42.496 0-58.708z"
        ],
        "attrs": [],
        "isMulticolor": false,
        "isMulticolor2": false,
        "grid": 0,
        "tags": [
          "x-o"
        ],
        "colorPermutations": {
          "12020301": [
            {}
          ]
        }
      },
      "attrs": [],
      "properties": {
        "order": 48,
        "id": 1,
        "name": "x-o",
        "prevSize": 32,
        "code": 59691
      },
      "setIdx": 0,
      "setId": 1,
      "iconIdx": 52
    },
    {
      "icon": {
        "paths": [
          "M837.463 33.206h-650.926c-96.198 0-174.329 104.011-174.329 231.95v493.688c0 127.939 78.131 231.462 174.329 231.462h650.926c96.198 0 174.329-104.011 174.329-231.462v-493.688c0-127.939-78.131-231.95-174.329-231.95zM928.778 765.68c0 77.642-44.925 141.124-99.617 141.124h-629.44c-55.18 0-99.617-62.993-99.617-141.124v-508.826c0-77.642 44.925-141.124 99.617-141.124h629.44c55.18 0 99.617 62.993 99.617 141.124l-0 508.826z",
          "M684.132 478.062l-299.826-197.28c-12.208-8.301-28.322-8.79-41.507-1.953s-21.486 20.509-21.486 35.647v395.048c0 14.649 8.301 28.322 21.486 35.647 5.86 3.418 12.696 4.883 19.044 4.883 7.813 0 15.626-2.442 22.463-6.836l299.826-197.768c11.231-7.325 18.068-20.021 18.068-33.694s-6.836-25.881-18.068-33.694zM402.373 634.323v-244.647l185.56 122.567-185.56 122.079z"
        ],
        "attrs": [],
        "isMulticolor": false,
        "isMulticolor2": false,
        "grid": 0,
        "tags": [
          "youtube"
        ],
        "colorPermutations": {
          "12020301": [
            {},
            {}
          ]
        }
      },
      "attrs": [],
      "properties": {
        "order": 49,
        "id": 0,
        "name": "youtube",
        "prevSize": 32,
        "code": 59692
      },
      "setIdx": 0,
      "setId": 1,
      "iconIdx": 53
    }
  ],
  "height": 1024,
  "metadata": {
    "name": "access-imobil"
  },
  "preferences": {
    "showGlyphs": true,
    "showCodes": true,
    "showQuickUse": true,
    "showQuickUse2": true,
    "showSVGs": true,
    "fontPref": {
      "prefix": "fai-",
      "metadata": {
        "fontFamily": "access-imobil",
        "majorVersion": 1,
        "minorVersion": 0
      },
      "metrics": {
        "emSize": 1024,
        "baseline": 6.25,
        "whitespace": 50
      },
      "embed": false,
      "postfix": "",
      "showSelector": true,
      "selector": "class",
      "classSelector": ".fai",
      "showMetrics": true,
      "showMetadata": false,
      "showVersion": false
    },
    "imagePref": {
      "prefix": "icon-",
      "png": true,
      "useClassSelector": true,
      "color": 0,
      "bgColor": 16777215
    },
    "historySize": 50,
    "gridSize": 16,
    "showGrid": true
  }
}