<?xml version="1.0" encoding="utf-8"?>
<!-- Generator: Adobe Illustrator 22.1.0, SVG Export Plug-In . SVG Version: 6.00 Build 0)  -->
<svg version="1.1" id="Layer_1" xmlns="http://www.w3.org/2000/svg" xmlns:xlink="http://www.w3.org/1999/xlink" x="0px" y="0px"
	 viewBox="0 0 1366 450" style="enable-background:new 0 0 1366 450;" xml:space="preserve">
<style type="text/css">
	.st0{fill:#F06724;}
	.st1{fill:#080405;}
</style>
<g>
	<g>
		<path class="st0" d="M88.5,154.5c-36.7,82.7-68.6,154.2-70.8,158.9l-3.9,8.5l25-0.2l25-0.4l54-118.8
			c29.9-65.3,54.5-118.9,54.9-118.9c0.4,0,24.9,53.2,54.4,118.2c29.5,65.1,54,118.6,54.5,119.2c8.3,0.7,16.7,0.9,25,0.6l24.3-0.4
			l-70-158.2L191,4.9l-17.8-0.4l-17.7-0.2L88.5,154.5z"/>
		<g>
			<path class="st1" d="M140.7,219.1c-18.5,39.3-37,78.6-41,87.1L92.2,322h27.9l8.9-20l9-19.8l35-0.4l35.1-0.2l8.7,20.1l8.8,20.1h14
				c7.7,0,13.7-0.4,13.5-0.9c-0.4-0.5-17.8-39.2-38.8-86.2s-38.5-85.7-39-86.3C174.7,148.1,159.2,179.8,140.7,219.1z M185.7,230.1
				c5.9,13.6,11.1,25.6,11.5,26.3c0.5,1.2-4.7,1.5-23.9,1.5c-14.1,0-24.3-0.5-24.1-1.1c2.8-7.8,24.3-53,24.8-52.5
				C174.5,204.8,179.7,216.3,185.7,230.1z"/>
			<path class="st1" d="M838.8,258.3v63.6h21.3l0.2-31.3l0.4-31.4l18.3,23.7c10.1,12.9,18.4,23.6,18.5,23.6s8.4-10.7,18.5-23.7
				l18.3-23.7l0.4,31.4l0.2,31.4h21.3v-63.6c0-36.4-0.5-63.2-1.1-62.5c-0.6,0.6-13.6,18.3-29.2,39.3c-26.9,36.6-28.3,38.3-30.2,36.1
				c-1.1-1.2-13.9-18.4-28.4-38.3s-26.9-36.6-27.4-37.3C839.3,195.1,838.8,222.8,838.8,258.3z"/>
			<path class="st1" d="M385.8,198.9c-34.2,4.5-58.2,35.8-53.8,70c3.3,25.5,21.9,46.3,46.9,52.5c12.2,3.3,31.6,1.5,41.7-3.7
				c3.3-1.7,3.3-1.8,3.3-14.1c0.1-4.2,0-8.3-0.5-12.4c-2.2,1.2-4.4,2.5-6.4,4c-16.9,10.9-39.1,8.2-52.9-6.4
				c-8.4-9-10.8-15.1-10.8-27.9c0-9.1,0.5-11.6,3.1-17.3c6.6-14.3,20.9-23.6,36.7-23.7c9.2-0.4,18.2,2.2,25.7,7.5l5,3.4V205
				l-6.8-2.6c-4-1.5-8-2.5-12.2-3.2c-3-0.4-6.6-0.7-8.3-0.9C393.1,198.2,389.4,198.4,385.8,198.9z"/>
			<path class="st1" d="M488,198.8c-24.3,3.2-44.6,20.2-52.1,43.5c-3.4,12.6-3.2,25.8,0.5,38.3c11.6,33.1,47.8,50.6,80.9,39.1
				c1.2-0.4,2.4-0.9,3.6-1.4l5.1-2.1v-12.6c0.2-4.2,0-8.3-0.7-12.4c-1.6,0.8-3.2,1.8-4.6,3c-7.7,5.6-17.2,8.2-26.7,7.5
				c-15-0.5-28.5-9.1-35.2-22.5c-3-5.7-3.3-7.5-3.3-18.1c0-14,2.5-20.3,11.3-29c15.1-15.2,37.9-16.2,56.7-2.8l2.6,1.9v-25.1
				l-4.4-2.1C511,199.1,499.4,197.4,488,198.8z"/>
			<path class="st1" d="M669,198.8c-27.3,4.4-38,41.7-17.2,59.7c4.5,3.4,9.4,6.5,14.5,9c22.5,11.6,26.9,16.6,22.4,25.7
				c-2.5,5.2-10.4,9.7-16.9,9.7c-7-0.3-13.3-3.9-17.2-9.7c-1.3-2.5-3-4.5-3.7-4.5c-3.2,0.9-6.2,2.1-9.1,3.6
				c-7.6,3.4-7.8,3.6-6.6,6.8c3.4,9.7,15.1,20.3,25.4,23c9.8,1.9,19.9,1,29.2-2.7c14.5-6.6,21.2-16.7,21.2-31.6
				c0-16.2-7-24.7-30.7-36.7c-16.9-8.7-20.9-12.4-19.9-19.7c0.4-3.4,2.2-6.5,4.9-8.5c2.6-2.9,6.4-4.4,10.3-3.9
				c5.6,0,6.5,0.5,10.8,4.7l4.7,4.7l8.9-4.1l8.9-4.1l-3-5C698.8,203.2,683.7,196.4,669,198.8z"/>
			<path class="st1" d="M1030.8,198.8c-24.4,2.6-46.2,21.7-52.7,46.2c-2.3,10.3-2.3,21,0,31.3c4.7,16.7,15.8,30.8,30.9,39.3
				c24.5,13.2,54.8,8.8,74.6-10.9c24.4-24.3,24.4-63.8,0-88.2c-6.8-6.8-15.1-12-24.2-15C1050.2,198.5,1040.4,197.6,1030.8,198.8z
				 M1057.8,223.9c8.2,4.3,14.8,11.2,18.8,19.6c2.8,5.9,3.3,8.1,3.3,17.4c-0.1,9.1-0.6,11.6-3.3,17.3c-4.7,8.8-11.9,15.9-20.7,20.4
				c-4.5,2.1-7.8,2.6-16.8,2.6c-10,0-12.1-0.4-17.9-3.3c-8.8-4.7-15.9-11.9-20.4-20.7c-3.8-8.1-3.7-24.5,0.1-32.7
				c3.8-9,10.7-16.2,19.6-20.3c8.3-4.3,8.8-4.4,19.8-3.9C1049.6,220.7,1052.6,221.3,1057.8,223.9L1057.8,223.9z"/>
			<polygon class="st1" points="546,260.9 546,321.9 584,321.9 621.9,321.9 621.9,311.3 621.9,300.6 594,300.6 566.2,300.6 
				566.2,285.8 566.2,271 591.1,271 616.1,271 615.7,260.5 615.4,250.2 590.8,249.9 566.2,249.6 566.2,235.4 566.2,221.2 594,221.2 
				621.9,221.2 621.9,210.5 621.9,199.8 584,199.8 546,199.8 			"/>
			<polygon class="st1" points="792.6,260.9 792.6,321.9 803.2,321.9 813.9,321.9 813.9,260.9 813.9,199.8 803.2,199.8 792.6,199.8 
							"/>
			<path class="st1" d="M1122.1,260.9V322l30-0.4c27.6-0.4,30.3-0.6,35.3-2.8c12.7-5.3,21-17.8,21-31.5c0.5-7.8,0-10.1-2.5-15.6
				c-2-4-4.5-7.7-7.6-10.9l-4.6-4.4l3.1-6c2.4-4.8,3.4-10.2,3-15.5c0-8.3-0.5-10.3-3.6-15.8c-3.6-6.9-9.4-12.5-16.4-15.9
				c-4.6-2.6-6.6-2.7-31.3-3.1l-26.4-0.4V260.9z M1171.8,223c9.4,4.9,9.4,20,0,24.9c-2.4,1.3-7.1,1.8-16,1.8h-12.4v-28.4h12.4
				C1164.7,221.2,1169.5,221.7,1171.8,223L1171.8,223z M1179.8,273c3,1.4,5.3,4,6.5,7.1c2,4.7,2.1,5.8,0.7,10.2
				c-0.9,3.1-2.9,5.8-5.6,7.6c-3.7,2.5-5.3,2.7-21,2.7h-17.1V271h16.1C1172.2,271,1176.6,271.4,1179.8,273L1179.8,273z"/>
			<polygon class="st1" points="1229.9,260.9 1229.9,321.9 1240,321.9 1250.1,321.9 1250.1,260.9 1250.1,199.8 1240,199.8 
				1229.9,199.8 			"/>
			<polygon class="st1" points="1275.2,260.5 1275.6,321.3 1313.8,321.7 1352,321.9 1352,311.3 1352,300.6 1324.1,300.6 
				1296.3,300.6 1296.3,250.2 1296.3,199.8 1285.6,199.8 1275,199.8 			"/>
		</g>
	</g>
	<g>
		<g>
			<path class="st0" d="M56.1,383.7c-10.6,1.6-19.6,8.5-23.8,18.3c-2.4,5.4-2.7,17.9-0.6,24c3.3,7.2,8.9,13.2,15.8,17.1
				c7.1,3,15,3.8,22.6,2.2l5.9-1.4v-16.2l-3.3,2.4c-5,3.5-11.5,4.2-17.1,1.9c-9-3.2-13.8-13-10.9-22.1C47.2,400,57.2,394,67,396.5
				c1.9,0.5,3.6,1.2,5.2,2.2l3.7,2.2v-7.3c0-6-0.3-7.6-2-8.3C68.2,383.5,62.1,382.9,56.1,383.7z"/>
			<path class="st0" d="M128.4,383.9c-7.4,1.3-14.1,5.5-18.5,11.6c-4.2,5.8-6.2,12.8-5.9,19.9c-0.3,11.6,6.3,22.3,16.9,27.2
				c5,2.6,7.3,3,15.7,3c8.5,0,10.8-0.5,15.8-3c14.1-7.4,20.5-24.1,15.1-39.1c-3.5-9.9-12.7-18-22-19.4c-2.7-0.3-6.2-0.9-7.8-1.2
				C134.5,382.9,131.4,383.2,128.4,383.9z M146.3,398.4c6.2,3.6,8.3,7.7,8.3,16.3c0,9.2-2.1,12.9-9.4,16.5c-5.8,3.2-12.9,3-18.5-0.6
				c-5.8-3.3-9.2-9.6-8.7-16.3c-0.2-10.2,7.8-18.6,18-18.8C139.6,395.4,143.2,396.5,146.3,398.4L146.3,398.4z"/>
			<path class="st0" d="M201.2,411.7c-2.3,14.9-4.5,28.5-4.9,30.2l-0.7,3.3h14l2-16.1c1.2-8.7,2.4-16.9,2.8-17.9
				c0.5-1.3,3.4,4.3,8.3,16.1c9.8,23.4,9.7,23.4,19.7-0.5c2.3-5.9,4.9-11.8,7.8-17.4c0.1,0.2,1,6.6,2.1,14.3
				c3.1,24,2.1,21.5,10,21.5h7l-0.7-3.3c-0.3-1.7-2.6-15.2-4.9-29.9l-4.3-26.8l-5.9-0.3l-5.9-0.3l-6.6,16.1
				c-3.6,8.8-7.1,16.7-7.7,17.7c-1,1.9-2.6-1-11.2-22.2l-4.5-11.4h-11.9L201.2,411.7z"/>
			<path class="st0" d="M298.2,414.8v30.4h14v-22.1h7.9c14.1,0,20.6-6,20.6-19.4c0-7.7-1.7-11.3-8-15.9c-2.8-2.1-5.2-2.4-18.8-2.8
				l-15.6-0.5v30.3H298.2z M324.7,398c1.3,1.7,1.9,3.8,1.9,5.9c0,5.4-2.4,7.7-9.1,8.4l-5.4,0.7v-18.1l5.4,0.7
				C320.1,395.7,322.5,396.5,324.7,398L324.7,398z"/>
			<path class="st0" d="M380.7,385.1c0,0.2-5.5,13.8-12.1,30.2l-12.2,29.9H371l2.1-5.8l2.1-5.8h24l2.1,5.8l2.1,5.8H418l-2.1-5
				c-1-2.8-6.4-16.4-11.9-30.2l-9.9-25.2h-6.6C385.2,384.6,383,384.7,380.7,385.1z M391.7,413.2c1.6,4.5,3,8.6,3,9.1
				c-2.5,0.8-5.1,1.1-7.7,0.8c-6.9,0-7.6-0.2-6.9-2.1c0.5-1,2.1-5.6,3.7-9.9c1.6-4.4,3.4-7.6,3.8-7
				C389.2,407.1,390.6,410.1,391.7,413.2z"/>
			<polygon class="st0" points="443.6,415 443.6,445.3 450.3,445 456.9,444.6 457.5,425.5 458.1,406.3 474.4,425.9 490.7,445.3 
				496.5,445 502.3,444.6 502.6,414.6 502.9,384.7 495.9,384.7 488.9,384.7 488.7,404.1 488.3,423.6 472,404.1 455.8,384.7 
				449.7,384.7 443.6,384.7 			"/>
			<polygon class="st0" points="534.3,415 534.3,445.2 541.3,445.2 548.2,445.2 548.2,415 548.2,384.7 541.3,384.7 534.3,384.7 			
				"/>
			<polygon class="st0" points="580.8,415 580.8,445.2 597.7,445.2 614.5,445.2 614.5,439.4 614.5,433.6 604.6,433.6 594.8,433.6 
				594.8,426.6 594.8,419.6 604.1,419.6 613.4,419.6 613.4,413.8 613.4,408 604.1,408 594.8,408 594.8,402.2 594.8,396.3 
				604.6,396.3 614.5,396.3 614.5,390.5 614.5,384.7 597.7,384.7 580.8,384.7 			"/>
		</g>
		<g>
			<path class="st0" d="M844.3,383.7c-6.4,0.6-12.4,3.5-16.9,8.1c-11.9,11.5-13.1,30.1-2.9,43.2c3,3.1,6.4,5.6,10.2,7.6
				c5.6,2.8,8,3.3,15.9,3.3c11.2-0.1,17.9-2.8,24.4-10.1c5.5-5.4,8.4-13,7.9-20.7C883.2,393.9,866.2,380.2,844.3,383.7z
				 M855.9,396.3c6.1,2.1,10.8,7.1,12.4,13.4c3,13.8-5.7,24.5-19.2,23.5c-20.2-1.5-24.5-29.5-5.5-36.3
				C849.4,394.9,850.7,394.8,855.9,396.3z"/>
			<polygon class="st0" points="674.5,415 674.5,445.2 681.5,445.2 688.5,445.2 688.5,415 688.5,384.7 681.5,384.7 674.5,384.7 			
				"/>
			<path class="st0" d="M727.4,387.3c-1.2,5.1-8.7,53.5-8.7,55.7c0,1.9,0.8,2.2,6.3,2.2c7.6,0,6.9,1.5,9.5-20
				c0.5-5.2,1.4-10.4,2.6-15.5c0.3,0.3,3.8,8.3,7.8,17.8c9.7,23,9.7,23,19.2,0.2c2.3-6,5-11.8,8.1-17.4c1.4,5.7,2.4,11.6,2.9,17.4
				l2.1,17.4h6.9c3.7,0,6.7-0.5,6.7-1.2c0-0.6-2.1-14-4.7-29.7c-2.6-15.7-4.7-28.8-4.7-29.2c-2-0.5-4-0.6-6-0.2l-6,0.3l-7,17.1
				c-2.3,5.9-4.9,11.6-7.8,17.2c-0.5,0-1.6-2.2-2.8-4.9c-1-2.8-4.3-10.6-7.2-17.4l-5.2-12.6h-5.7C728.8,384.7,728,385.1,727.4,387.3
				z"/>
			<path class="st0" d="M912.9,415.1v30.4l15.5-0.5c12.8-0.3,16.1-0.8,19.4-2.8c10.7-6,10.8-23.6,0.3-27.9c-4.1-1.7-4.1-1.9-1.7-3.5
				c4.8-3.3,5.7-13.7,1.7-19.9c-3-4.7-8.4-6.2-22.3-6.2h-12.9V415.1z M936.9,398.1c3.6,5.5-0.6,11-8.3,11c-2.8,0-2.9-0.3-2.9-7v-7
				h4.7C934,395.2,935.4,395.8,936.9,398.1L936.9,398.1z M939.9,421.6c2.7,2.8,2.7,7.2,0,10c-2.4,1.5-5.1,2.3-7.9,2.2l-5.7,0.3
				l-0.3-7.3l-0.3-7.2h6C934.6,419.3,937.5,420,939.9,421.6L939.9,421.6z"/>
			<polygon class="st0" points="985,415 985,445.2 992,445.2 999,445.2 999,415 999,384.7 992,384.7 985,384.7 			"/>
			<polygon class="st0" points="1031.6,415 1031.6,445.2 1047.9,445.2 1064.1,445.2 1064.1,439.4 1064.1,433.6 1054.8,433.6 
				1045.5,433.6 1045.5,409.1 1045.5,384.7 1038.5,384.7 1031.6,384.7 			"/>
			<path class="st0" d="M1144.1,386.8c-0.8,1.5-14.7,35.7-23,57c-0.5,1.2,1,1.4,6.6,1.2l7.2-0.3l2.1-5.2l2.1-5.2l11.7-0.3l11.9-0.3
				l2.4,5.9l2.4,5.8h6.7c2.3,0.2,4.6,0,6.9-0.6c0-0.3-5.2-14-11.7-30.2l-11.6-29.7h-6.3C1146.7,384.7,1145,385.2,1144.1,386.8z
				 M1155.5,413.6l3.5,9.5h-7.4c-4.2,0-7.6-0.5-7.6-1c1.8-6.1,4.1-12.1,6.6-17.9C1151.5,402.7,1151.7,403.1,1155.5,413.6
				L1155.5,413.6z"/>
			<path class="st0" d="M1206.8,415v30.2h13.8l0.3-12l0.3-11.9l8.1,11.9l8.1,11.9l8.6,0.1c6.6,0,8.3-0.3,7.3-1.5
				c-0.6-0.7-4.9-6.4-9.4-12.3l-8.4-11l4.2-2.1c12.1-6.3,11.7-25.2-0.6-31.4c-3.3-1.6-7.1-2.1-18.3-2.1h-14.3L1206.8,415z
				 M1232.2,397c1.8,1.3,2.8,3.6,2.6,5.8c0,5.5-3.4,8.6-9.3,8.6h-4.7v-16.3h4.4C1227.7,395.2,1230.1,395.8,1232.2,397L1232.2,397z"
				/>
			<path class="st0" d="M1298.8,387.3c-0.6,1.5-5,12.3-9.8,24.2s-9.9,24.3-11.2,27.6l-2.4,6.2h14.1l2.4-5.8l2.4-5.8h23.6l2.1,5.8
				l2.1,5.8h7c6.6,0,7-0.1,6.3-2.7c-0.3-1.4-5.6-14.9-11.5-29.9l-10.9-27.3l-6.5-0.3C1300.5,384.6,1299.8,384.8,1298.8,387.3z
				 M1310.7,413.6c1.7,4.7,3.1,8.7,3.1,9.1c-5,0.6-10.1,0.6-15.1,0c0-0.2,1.3-4.1,2.9-8.4c1.6-4.4,3.3-8.7,3.6-9.7
				C1306,402,1307.3,404.1,1310.7,413.6L1310.7,413.6z"/>
			<polygon class="st0" points="1085.1,415 1085.1,445.2 1092.1,445.2 1099.1,445.2 1099.1,415 1099.1,384.7 1092.1,384.7 
				1085.1,384.7 			"/>
		</g>
	</g>
</g>
</svg>
